<?xml version="1.0" encoding="UTF-8" standalone="no"?>
<!-- Created with Inkscape (http://www.inkscape.org/) -->

<svg
   xmlns:dc="http://purl.org/dc/elements/1.1/"
   xmlns:cc="http://creativecommons.org/ns#"
   xmlns:rdf="http://www.w3.org/1999/02/22-rdf-syntax-ns#"
   xmlns:svg="http://www.w3.org/2000/svg"
   xmlns="http://www.w3.org/2000/svg"
   xmlns:sodipodi="http://sodipodi.sourceforge.net/DTD/sodipodi-0.dtd"
   xmlns:inkscape="http://www.inkscape.org/namespaces/inkscape"
   version="1.1"
   id="svg2"
   xml:space="preserve"
   width="682"
   height="318"
   viewBox="0 0 682 318"
   sodipodi:docname="figure_heap2.svg"
   inkscape:version="0.92.4 5da689c313, 2019-01-14"><metadata
     id="metadata8"><rdf:RDF><cc:Work
         rdf:about=""><dc:format>image/svg+xml</dc:format><dc:type
           rdf:resource="http://purl.org/dc/dcmitype/StillImage" /><dc:title></dc:title></cc:Work></rdf:RDF></metadata><defs
     id="defs6" /><sodipodi:namedview
     pagecolor="#ffffff"
     bordercolor="#666666"
     borderopacity="1"
     objecttolerance="10"
     gridtolerance="10"
     guidetolerance="10"
     inkscape:pageopacity="0"
     inkscape:pageshadow="2"
     inkscape:window-width="1596"
     inkscape:window-height="870"
     id="namedview4"
     showgrid="false"
     showguides="false"
     inkscape:zoom="1.0558176"
     inkscape:cx="419.51169"
     inkscape:cy="100.06282"
     inkscape:window-x="2"
     inkscape:window-y="28"
     inkscape:window-maximized="0"
     inkscape:current-layer="g10"
     inkscape:snap-page="true" /><g
     id="g10"
     inkscape:groupmode="layer"
     inkscape:label="figure_heap2"
     transform="matrix(1.3333333,0,0,1.3333333,0,5.2500078)"><g
       id="g1904"
       transform="translate(-0.22605463,-2.1419659)"><g
         id="g1513"><g
           id="g635"
           transform="translate(-0.068)"><path
             d="m 273.98753,11.7165 c 0,6.31419 -5.11621,11.43166 -11.4304,11.43166 -6.31545,0 -11.43166,-5.11747 -11.43166,-11.43166 0,-6.31545 5.11621,-11.43166 11.43166,-11.43166 6.31419,0 11.4304,5.11621 11.4304,11.43166 z"
             style="fill:#6699cc;fill-opacity:1;fill-rule:nonzero;stroke:#000000;stroke-width:0.90000004;stroke-miterlimit:4;stroke-dasharray:none"
             id="path942"
             inkscape:connector-curvature="0" /><text
             y="15.740967"
             x="258.19666"
             style="font-variant:normal;font-weight:500;font-size:17.65117073px;font-family:'Noto Sans Mono Med';-inkscape-font-specification:NotoSansMono-Medium;writing-mode:lr-tb;fill:#f2f2f2;fill-opacity:1;fill-rule:nonzero;stroke:none"
             id="text18"><tspan
               style="font-style:normal;font-variant:normal;font-weight:normal;font-stretch:normal;font-family:Inconsolata;-inkscape-font-specification:Inconsolata;fill:#f2f2f2"
               x="258.19666"
               y="15.740967"
               id="tspan16">a</tspan></text>
</g><g
           id="g470"
           transform="translate(0,-4.5)"><path
             d="m 154.449,74.527 -1.457,-3.461 98.617,-51.089 -0.464,-1.102 -98.622,51.09 -1.457,-3.457 -1.046,2.804 -1.051,2.805 2.742,1.203 z"
             style="fill:#000000;fill-opacity:0.98765396;fill-rule:nonzero;stroke:none"
             id="path20"
             inkscape:connector-curvature="0" /><path
             d="m 370.527,74.527 1.461,-3.461 -98.617,-51.089 0.465,-1.102 98.617,51.09 1.461,-3.457 2.094,5.609 -2.738,1.203 z"
             style="fill:#000000;fill-opacity:0.98765396;fill-rule:nonzero;stroke:none"
             id="path132"
             inkscape:connector-curvature="0" /></g></g><g
         id="g1752"><g
           id="g1504"><g
             id="g735"><g
               id="g488"
               transform="translate(252.297)"><path
                 inkscape:connector-curvature="0"
                 id="path484"
                 style="fill:#000000;fill-opacity:0.98765396;fill-rule:nonzero;stroke:none"
                 d="m 80.773,114.355 -1.875,-3.25 47.418,-27.375 -0.597,-1.039 -47.418,27.379 -1.879,-3.25 -0.692,2.91 -0.691,2.915 z" /><path
                 inkscape:connector-curvature="0"
                 id="path486"
                 style="fill:#000000;fill-opacity:0.98765396;fill-rule:nonzero;stroke:none"
                 d="m 191.91,114.355 1.875,-3.25 -47.418,-27.375 0.598,-1.039 47.422,27.379 1.875,-3.25 0.691,2.91 0.692,2.915 z" /></g><g
               id="g726"><path
                 d="m 400.06953,79.2775 c 0,6.31419 -5.11621,11.43166 -11.4304,11.43166 -6.31545,0 -11.43166,-5.11747 -11.43166,-11.43166 0,-6.31545 5.11621,-11.43166 11.43166,-11.43166 6.31419,0 11.4304,5.11621 11.4304,11.43166 z"
                 style="fill:#6699cc;fill-opacity:1;fill-rule:nonzero;stroke:#000000;stroke-width:0.90000004;stroke-miterlimit:4;stroke-dasharray:none"
                 id="path490"
                 inkscape:connector-curvature="0" /><text
                 y="81.942825"
                 x="384.11096"
                 style="font-variant:normal;font-weight:500;font-size:17.65117073px;font-family:'Noto Sans Mono Med';-inkscape-font-specification:NotoSansMono-Medium;writing-mode:lr-tb;fill:#f2f2f2;fill-opacity:1;fill-rule:nonzero;stroke:none"
                 id="text138"><tspan
                   style="font-style:normal;font-variant:normal;font-weight:normal;font-stretch:normal;font-family:Inconsolata;-inkscape-font-specification:Inconsolata;fill:#f2f2f2"
                   x="384.11096"
                   y="81.942825"
                   id="tspan136">g</tspan></text>
</g></g><g
             transform="translate(-0.16191375)"
             id="g1457"><g
               id="g1400"><g
                 transform="translate(0.36184,-0.5542)"
                 id="g1381"><g
                   transform="translate(234.496,155.4105)"
                   id="g887"><path
                     d="m 273.98753,11.7165 c 0,6.31419 -5.11621,11.43166 -11.4304,11.43166 -6.31545,0 -11.43166,-5.11747 -11.43166,-11.43166 0,-6.31545 5.11621,-11.43166 11.43166,-11.43166 6.31419,0 11.4304,5.11621 11.4304,11.43166 z"
                     style="fill:#6699cc;fill-opacity:1;fill-rule:nonzero;stroke:#000000;stroke-width:0.90000004;stroke-miterlimit:4;stroke-dasharray:none"
                     id="path881"
                     inkscape:connector-curvature="0" /><text
                     y="15.740967"
                     x="258.19666"
                     style="font-variant:normal;font-weight:500;font-size:17.65117073px;font-family:'Noto Sans Mono Med';-inkscape-font-specification:NotoSansMono-Medium;writing-mode:lr-tb;fill:#f2f2f2;fill-opacity:1;fill-rule:nonzero;stroke:none"
                     id="text885"><tspan
                       style="font-style:normal;font-variant:normal;font-weight:normal;font-stretch:normal;font-family:Inconsolata;-inkscape-font-specification:Inconsolata;fill:#f2f2f2"
                       x="258.19666"
                       y="15.740967"
                       id="tspan883">p</tspan></text>
</g><g
                   id="g879"
                   transform="translate(155.8245,155.4105)"><path
                     inkscape:connector-curvature="0"
                     id="path873"
                     style="fill:#6699cc;fill-opacity:1;fill-rule:nonzero;stroke:#000000;stroke-width:0.90000004;stroke-miterlimit:4;stroke-dasharray:none"
                     d="m 273.98753,11.7165 c 0,6.31419 -5.11621,11.43166 -11.4304,11.43166 -6.31545,0 -11.43166,-5.11747 -11.43166,-11.43166 0,-6.31545 5.11621,-11.43166 11.43166,-11.43166 6.31419,0 11.4304,5.11621 11.4304,11.43166 z" /><text
                     id="text877"
                     style="font-variant:normal;font-weight:500;font-size:17.65117073px;font-family:'Noto Sans Mono Med';-inkscape-font-specification:NotoSansMono-Medium;writing-mode:lr-tb;fill:#f2f2f2;fill-opacity:1;fill-rule:nonzero;stroke:none"
                     x="258.19666"
                     y="15.740967"><tspan
                       id="tspan875"
                       y="15.740967"
                       x="258.19666"
                       style="font-style:normal;font-variant:normal;font-weight:normal;font-stretch:normal;font-family:Inconsolata;-inkscape-font-specification:Inconsolata;fill:#f2f2f2">q</tspan></text>
</g></g><g
                 id="g773"><g
                   transform="translate(390.81659,-3)"
                   id="g530"><path
                     inkscape:connector-curvature="0"
                     id="path526"
                     style="fill:#000000;fill-opacity:0.98765396;fill-rule:nonzero;stroke:none"
                     d="m 39.383,155.32 -2.656,-2.652 21.257,-21.258 -0.843,-0.848 -21.262,21.258 -2.652,-2.652 0.171,5.984 2.989,0.082 z" /><path
                     inkscape:connector-curvature="0"
                     id="path528"
                     style="fill:#000000;fill-opacity:0.98765396;fill-rule:nonzero;stroke:none"
                     d="m 95.145,155.32 2.652,-2.652 -21.258,-21.258 0.848,-0.848 21.258,21.258 2.652,-2.652 -0.172,5.984 -2.988,0.082 z" /></g><g
                   id="g764"><path
                     d="m 469.50912,122.7225 c 0,6.31419 -5.11621,11.43166 -11.4304,11.43166 -6.31545,0 -11.43166,-5.11747 -11.43166,-11.43166 0,-6.31545 5.11621,-11.43166 11.43166,-11.43166 6.31419,0 11.4304,5.11621 11.4304,11.43166 z"
                     style="fill:#6699cc;fill-opacity:1;fill-rule:nonzero;stroke:#000000;stroke-width:0.90000004;stroke-miterlimit:4;stroke-dasharray:none"
                     id="path532"
                     inkscape:connector-curvature="0" /><text
                     y="126.09007"
                     x="455.09479"
                     style="font-variant:normal;font-weight:500;font-size:13.97328854px;font-family:'Noto Sans Mono Med';-inkscape-font-specification:NotoSansMono-Medium;writing-mode:lr-tb;fill:#f2f2f2;fill-opacity:1;fill-rule:nonzero;stroke:none"
                     id="text148"><tspan
                       style="font-style:normal;font-variant:normal;font-weight:normal;font-stretch:normal;font-family:Inconsolata;-inkscape-font-specification:Inconsolata;fill:#f2f2f2"
                       x="455.09479"
                       y="126.09007"
                       id="tspan146">j</tspan></text>
</g></g></g><g
               id="g1419"><g
                 transform="translate(-1.1932875)"
                 id="g1335"><g
                   transform="translate(96.336,154.8563)"
                   id="g871"><path
                     d="m 273.98753,11.7165 c 0,6.31419 -5.11621,11.43166 -11.4304,11.43166 -6.31545,0 -11.43166,-5.11747 -11.43166,-11.43166 0,-6.31545 5.11621,-11.43166 11.43166,-11.43166 6.31419,0 11.4304,5.11621 11.4304,11.43166 z"
                     style="fill:#6699cc;fill-opacity:1;fill-rule:nonzero;stroke:#000000;stroke-width:0.90000004;stroke-miterlimit:4;stroke-dasharray:none"
                     id="path865"
                     inkscape:connector-curvature="0" /><text
                     y="15.740967"
                     x="258.19666"
                     style="font-variant:normal;font-weight:500;font-size:17.65117073px;font-family:'Noto Sans Mono Med';-inkscape-font-specification:NotoSansMono-Medium;writing-mode:lr-tb;fill:#f2f2f2;fill-opacity:1;fill-rule:nonzero;stroke:none"
                     id="text869"><tspan
                       style="font-style:normal;font-variant:normal;font-weight:normal;font-stretch:normal;font-family:Inconsolata;-inkscape-font-specification:Inconsolata;fill:#f2f2f2"
                       x="258.19666"
                       y="15.740967"
                       id="tspan867">n</tspan></text>
</g><g
                   id="g863"
                   transform="translate(18.824275,154.8563)"><path
                     inkscape:connector-curvature="0"
                     id="path857"
                     style="fill:#6699cc;fill-opacity:1;fill-rule:nonzero;stroke:#000000;stroke-width:0.90000004;stroke-miterlimit:4;stroke-dasharray:none"
                     d="m 273.98753,11.7165 c 0,6.31419 -5.11621,11.43166 -11.4304,11.43166 -6.31545,0 -11.43166,-5.11747 -11.43166,-11.43166 0,-6.31545 5.11621,-11.43166 11.43166,-11.43166 6.31419,0 11.4304,5.11621 11.4304,11.43166 z" /><text
                     id="text861"
                     style="font-variant:normal;font-weight:500;font-size:17.65117073px;font-family:'Noto Sans Mono Med';-inkscape-font-specification:NotoSansMono-Medium;writing-mode:lr-tb;fill:#f2f2f2;fill-opacity:1;fill-rule:nonzero;stroke:none"
                     x="258.19666"
                     y="15.740967"><tspan
                       id="tspan859"
                       y="15.740967"
                       x="258.19666"
                       style="font-style:normal;font-variant:normal;font-weight:normal;font-stretch:normal;font-family:Inconsolata;-inkscape-font-specification:Inconsolata;fill:#f2f2f2">m</tspan></text>
</g></g><g
                 id="g753"><g
                   id="g520"
                   transform="translate(251.68135,-3)"><path
                     d="m 39.383,155.32 -2.656,-2.652 21.257,-21.258 -0.843,-0.848 -21.262,21.258 -2.652,-2.652 0.171,5.984 2.989,0.082 z"
                     style="fill:#000000;fill-opacity:0.98765396;fill-rule:nonzero;stroke:none"
                     id="path516"
                     inkscape:connector-curvature="0" /><path
                     d="m 95.145,155.32 2.652,-2.652 -21.258,-21.258 0.848,-0.848 21.258,21.258 2.652,-2.652 -0.172,5.984 -2.988,0.082 z"
                     style="fill:#000000;fill-opacity:0.98765396;fill-rule:nonzero;stroke:none"
                     id="path518"
                     inkscape:connector-curvature="0" /></g><g
                   id="g744"><path
                     inkscape:connector-curvature="0"
                     id="path522"
                     style="fill:#6699cc;fill-opacity:1;fill-rule:nonzero;stroke:#000000;stroke-width:0.90000004;stroke-miterlimit:4;stroke-dasharray:none"
                     d="m 330.37388,122.7225 c 0,6.31419 -5.11621,11.43166 -11.4304,11.43166 -6.31545,0 -11.43166,-5.11747 -11.43166,-11.43166 0,-6.31545 5.11621,-11.43166 11.43166,-11.43166 6.31419,0 11.4304,5.11621 11.4304,11.43166 z" /><text
                     y="128.55621"
                     x="314.1329"
                     style="font-variant:normal;font-weight:500;font-size:17.65117073px;font-family:'Noto Sans Mono Med';-inkscape-font-specification:NotoSansMono-Medium;writing-mode:lr-tb;fill:#f2f2f2;fill-opacity:1;fill-rule:nonzero;stroke:none"
                     id="text154"><tspan
                       style="font-style:normal;font-variant:normal;font-weight:normal;font-stretch:normal;font-family:Inconsolata;-inkscape-font-specification:Inconsolata;fill:#f2f2f2"
                       x="314.1329"
                       y="128.55621"
                       id="tspan152">k</tspan></text>
</g></g></g></g></g><g
           id="g1609"><g
             id="g659"><g
               id="g476"><path
                 d="m 80.773,114.355 -1.875,-3.25 47.418,-27.375 -0.597,-1.039 -47.418,27.379 -1.879,-3.25 -0.692,2.91 -0.691,2.915 z"
                 style="fill:#000000;fill-opacity:0.98765396;fill-rule:nonzero;stroke:none"
                 id="path28"
                 inkscape:connector-curvature="0" /><path
                 d="m 191.91,114.355 1.875,-3.25 -47.418,-27.375 0.598,-1.039 47.422,27.379 1.875,-3.25 0.691,2.91 0.692,2.915 z"
                 style="fill:#000000;fill-opacity:0.98765396;fill-rule:nonzero;stroke:none"
                 id="path30"
                 inkscape:connector-curvature="0" /></g><g
               id="g650"><path
                 inkscape:connector-curvature="0"
                 id="path472"
                 style="fill:#6699cc;fill-opacity:1;fill-rule:nonzero;stroke:#000000;stroke-width:0.90000004;stroke-miterlimit:4;stroke-dasharray:none"
                 d="m 147.77253,79.2775 c 0,6.31419 -5.11621,11.43166 -11.4304,11.43166 -6.31545,0 -11.43166,-5.11747 -11.43166,-11.43166 0,-6.31545 5.11621,-11.43166 11.43166,-11.43166 6.31419,0 11.4304,5.11621 11.4304,11.43166 z" /><text
                 y="85.049431"
                 x="131.77867"
                 style="font-variant:normal;font-weight:500;font-size:17.65117073px;font-family:'Noto Sans Mono Med';-inkscape-font-specification:NotoSansMono-Medium;writing-mode:lr-tb;fill:#f2f2f2;fill-opacity:1;fill-rule:nonzero;stroke:none"
                 id="text26"><tspan
                   style="font-style:normal;font-variant:normal;font-weight:normal;font-stretch:normal;font-family:Inconsolata;-inkscape-font-specification:Inconsolata;fill:#f2f2f2"
                   x="131.77867"
                   y="85.049431"
                   id="tspan24">b</tspan></text>
</g></g><g
             id="g1325"><g
               id="g1238"><g
                 id="g717"><g
                   transform="translate(138.16307,-3)"
                   id="g510"><path
                     inkscape:connector-curvature="0"
                     id="path506"
                     style="fill:#000000;fill-opacity:0.98765396;fill-rule:nonzero;stroke:none"
                     d="m 39.383,155.32 -2.656,-2.652 21.257,-21.258 -0.843,-0.848 -21.262,21.258 -2.652,-2.652 0.171,5.984 2.989,0.082 z" /><path
                     inkscape:connector-curvature="0"
                     id="path508"
                     style="fill:#000000;fill-opacity:0.98765396;fill-rule:nonzero;stroke:none"
                     d="m 95.145,155.32 2.652,-2.652 -21.258,-21.258 0.848,-0.848 21.258,21.258 2.652,-2.652 -0.172,5.984 -2.988,0.082 z" /></g><g
                   id="g708"><path
                     d="m 216.8556,122.7225 c 0,6.31419 -5.11621,11.43166 -11.4304,11.43166 -6.31545,0 -11.43166,-5.11747 -11.43166,-11.43166 0,-6.31545 5.11621,-11.43166 11.43166,-11.43166 6.31419,0 11.4304,5.11621 11.4304,11.43166 z"
                     style="fill:#6699cc;fill-opacity:1;fill-rule:nonzero;stroke:#000000;stroke-width:0.90000004;stroke-miterlimit:4;stroke-dasharray:none"
                     id="path512"
                     inkscape:connector-curvature="0" /><text
                     y="126.73814"
                     x="200.89705"
                     style="font-variant:normal;font-weight:500;font-size:17.65117073px;font-family:'Noto Sans Mono Med';-inkscape-font-specification:NotoSansMono-Medium;writing-mode:lr-tb;fill:#f2f2f2;fill-opacity:1;fill-rule:nonzero;stroke:none"
                     id="text42"><tspan
                       style="font-style:normal;font-variant:normal;font-weight:normal;font-stretch:normal;font-family:Inconsolata;-inkscape-font-specification:Inconsolata;fill:#f2f2f2"
                       x="200.89705"
                       y="126.73814"
                       id="tspan40">c</tspan></text>
</g></g><g
                 id="g1198"><g
                   id="g993"
                   transform="translate(0,0.34691996)"><g
                     transform="translate(-0.06531)"
                     id="g930"><g
                       transform="translate(-64.37882,55.00374)"
                       id="g912"><path
                         d="m 255.42335,167.84176 c 0,6.31419 -5.11621,11.43166 -11.4304,11.43166 -6.31545,0 -11.43166,-5.11747 -11.43166,-11.43166 0,-6.31545 5.11621,-11.43166 11.43166,-11.43166 6.31419,0 11.4304,5.11621 11.4304,11.43166 z"
                         style="fill:#6699cc;fill-opacity:1;fill-rule:nonzero;stroke:#000000;stroke-width:0.90000004;stroke-miterlimit:4;stroke-dasharray:none"
                         id="path906"
                         inkscape:connector-curvature="0" /><text
                         y="171.88388"
                         x="239.63248"
                         style="font-style:normal;font-variant:normal;font-weight:normal;font-stretch:normal;font-size:17.65117073px;font-family:Inconsolata;-inkscape-font-specification:Inconsolata;writing-mode:lr-tb;fill:#f2f2f2;fill-opacity:1;fill-rule:nonzero;stroke:none"
                         id="text910"><tspan
                           style="font-style:normal;font-variant:normal;font-weight:normal;font-stretch:normal;font-family:Inconsolata;-inkscape-font-specification:Inconsolata;fill:#f2f2f2"
                           x="239.63248"
                           y="171.88388"
                           id="tspan908">s</tspan></text>
</g><g
                       id="g920"
                       transform="translate(-89.63882,55.00374)"><path
                         inkscape:connector-curvature="0"
                         id="path914"
                         style="fill:#6699cc;fill-opacity:1;fill-rule:nonzero;stroke:#000000;stroke-width:0.90000004;stroke-miterlimit:4;stroke-dasharray:none"
                         d="m 255.42335,167.84176 c 0,6.31419 -5.11621,11.43166 -11.4304,11.43166 -6.31545,0 -11.43166,-5.11747 -11.43166,-11.43166 0,-6.31545 5.11621,-11.43166 11.43166,-11.43166 6.31419,0 11.4304,5.11621 11.4304,11.43166 z" /><text
                         id="text918"
                         style="font-style:normal;font-variant:normal;font-weight:normal;font-stretch:normal;font-size:17.65117073px;font-family:Inconsolata;-inkscape-font-specification:Inconsolata;writing-mode:lr-tb;fill:#f2f2f2;fill-opacity:1;fill-rule:nonzero;stroke:none"
                         x="239.63248"
                         y="171.88388"><tspan
                           id="tspan916"
                           y="171.88388"
                           x="239.63248"
                           style="font-style:normal;font-variant:normal;font-weight:normal;font-stretch:normal;font-family:Inconsolata;-inkscape-font-specification:Inconsolata;fill:#f2f2f2">u</tspan></text>
</g></g><g
                     id="g837"><g
                       id="g562"
                       transform="translate(139.88869,-3.1393331)"><path
                         d="m 20.238,208.449 -3.625,-0.972 7.782,-29.039 -1.157,-0.309 -7.781,29.039 -3.625,-0.973 1.57,2.551 1.571,2.547 z"
                         style="fill:#000000;fill-opacity:0.98765396;fill-rule:nonzero;stroke:none"
                         id="path558"
                         inkscape:connector-curvature="0" /><path
                         d="m 33.816,208.449 3.629,-0.972 -7.781,-29.039 1.152,-0.309 7.782,29.039 3.629,-0.973 -1.571,2.551 -1.57,2.547 -2.633,-1.422 z"
                         style="fill:#000000;fill-opacity:0.98765396;fill-rule:nonzero;stroke:none"
                         id="path560"
                         inkscape:connector-curvature="0" /></g><g
                       id="g828"><path
                         inkscape:connector-curvature="0"
                         id="path564"
                         style="fill:#6699cc;fill-opacity:1;fill-rule:nonzero;stroke:#000000;stroke-width:0.90000004;stroke-miterlimit:4;stroke-dasharray:none"
                         d="m 178.51142,165.99484 c 0,6.31419 -5.11621,11.43166 -11.4304,11.43166 -6.31545,0 -11.43166,-5.11747 -11.43166,-11.43166 0,-6.31545 5.11621,-11.43166 11.43166,-11.43166 6.31419,0 11.4304,5.11621 11.4304,11.43166 z" /><text
                         y="171.86386"
                         x="162.62347"
                         style="font-style:normal;font-variant:normal;font-weight:normal;font-stretch:normal;font-size:17.65117073px;font-family:Inconsolata;-inkscape-font-specification:Inconsolata;writing-mode:lr-tb;fill:#f2f2f2;fill-opacity:1;fill-rule:nonzero;stroke:none"
                         id="text100"><tspan
                           style="font-style:normal;font-variant:normal;font-weight:normal;font-stretch:normal;font-family:Inconsolata;-inkscape-font-specification:Inconsolata;fill:#f2f2f2"
                           x="162.62347"
                           y="171.86386"
                           id="tspan98">h</tspan></text>
</g></g></g><g
                   id="g1035"
                   transform="translate(0,-1.5)"><g
                     id="g974"><path
                       d="m 248.3438,204.04427 -3.75305,-6.6e-4 9.9e-4,-30.06365 -1.19755,9.8e-4 -4e-5,30.06339 -3.7533,-0.002 2.17674,2.05773 2.17669,2.05361 z"
                       style="fill:#000000;fill-opacity:0.98765396;fill-rule:nonzero;stroke:none"
                       id="path568"
                       inkscape:connector-curvature="0" /><g
                       id="g846"><path
                         d="m 255.42335,167.84176 c 0,6.31419 -5.11621,11.43166 -11.4304,11.43166 -6.31545,0 -11.43166,-5.11747 -11.43166,-11.43166 0,-6.31545 5.11621,-11.43166 11.43166,-11.43166 6.31419,0 11.4304,5.11621 11.4304,11.43166 z"
                         style="fill:#6699cc;fill-opacity:1;fill-rule:nonzero;stroke:#000000;stroke-width:0.90000004;stroke-miterlimit:4;stroke-dasharray:none"
                         id="path574"
                         inkscape:connector-curvature="0" /><text
                         y="171.88388"
                         x="239.63248"
                         style="font-style:normal;font-variant:normal;font-weight:normal;font-stretch:normal;font-size:17.65117073px;font-family:Inconsolata;-inkscape-font-specification:Inconsolata;writing-mode:lr-tb;fill:#f2f2f2;fill-opacity:1;fill-rule:nonzero;stroke:none"
                         id="text122"><tspan
                           style="font-style:normal;font-variant:normal;font-weight:normal;font-stretch:normal;font-family:Inconsolata;-inkscape-font-specification:Inconsolata;fill:#f2f2f2"
                           x="239.63248"
                           y="171.88388"
                           id="tspan120">e</tspan></text>
</g></g><g
                     transform="translate(0,55.00374)"
                     id="g904"><path
                       d="m 255.42335,167.84176 c 0,6.31419 -5.11621,11.43166 -11.4304,11.43166 -6.31545,0 -11.43166,-5.11747 -11.43166,-11.43166 0,-6.31545 5.11621,-11.43166 11.43166,-11.43166 6.31419,0 11.4304,5.11621 11.4304,11.43166 z"
                       style="fill:#6699cc;fill-opacity:1;fill-rule:nonzero;stroke:#000000;stroke-width:0.90000004;stroke-miterlimit:4;stroke-dasharray:none"
                       id="path898"
                       inkscape:connector-curvature="0" /><text
                       y="171.88388"
                       x="239.63248"
                       style="font-style:normal;font-variant:normal;font-weight:normal;font-stretch:normal;font-size:17.65117073px;font-family:Inconsolata;-inkscape-font-specification:Inconsolata;writing-mode:lr-tb;fill:#f2f2f2;fill-opacity:1;fill-rule:nonzero;stroke:none"
                       id="text902"><tspan
                         style="font-style:normal;font-variant:normal;font-weight:normal;font-stretch:normal;font-family:Inconsolata;-inkscape-font-specification:Inconsolata;fill:#f2f2f2"
                         x="239.63248"
                         y="171.88388"
                         id="tspan900">v</tspan></text>
</g></g></g></g><g
               id="g1167"><g
                 id="g693"><g
                   id="g498"
                   transform="translate(0,-3)"><path
                     d="m 39.383,155.32 -2.656,-2.652 21.257,-21.258 -0.843,-0.848 -21.262,21.258 -2.652,-2.652 0.171,5.984 2.989,0.082 z"
                     style="fill:#000000;fill-opacity:0.98765396;fill-rule:nonzero;stroke:none"
                     id="path44"
                     inkscape:connector-curvature="0" /><path
                     d="m 95.145,155.32 2.652,-2.652 -21.258,-21.258 0.848,-0.848 21.258,21.258 2.652,-2.652 -0.172,5.984 -2.988,0.082 z"
                     style="fill:#000000;fill-opacity:0.98765396;fill-rule:nonzero;stroke:none"
                     id="path46"
                     inkscape:connector-curvature="0" /></g><g
                   id="g684"><path
                     inkscape:connector-curvature="0"
                     id="path494"
                     style="fill:#6699cc;fill-opacity:1;fill-rule:nonzero;stroke:#000000;stroke-width:0.90000004;stroke-miterlimit:4;stroke-dasharray:none"
                     d="m 78.69253,122.7225 c 0,6.31419 -5.11621,11.43166 -11.4304,11.43166 -6.31545,0 -11.43166,-5.11747 -11.43166,-11.43166 0,-6.31545 5.11621,-11.43166 11.43166,-11.43166 6.31419,0 11.4304,5.11621 11.4304,11.43166 z" /><text
                     y="128.64447"
                     x="62.530987"
                     style="font-style:normal;font-variant:normal;font-weight:normal;font-stretch:normal;font-size:17.65117073px;font-family:Inconsolata;-inkscape-font-specification:Inconsolata;writing-mode:lr-tb;fill:#ececec;fill-opacity:1;fill-rule:nonzero;stroke:none"
                     id="text36"><tspan
                       style="font-style:normal;font-variant:normal;font-weight:normal;font-stretch:normal;font-family:Inconsolata;-inkscape-font-specification:Inconsolata;fill:#ececec"
                       x="62.530987"
                       y="128.64447"
                       id="tspan34">f</tspan></text>
</g></g><g
                 transform="translate(0.300183)"
                 id="g1120"><g
                   id="g1054"><g
                     id="g800"><g
                       transform="translate(79.864634,-3.1393331)"
                       id="g552"><path
                         inkscape:connector-curvature="0"
                         id="path548"
                         style="fill:#000000;fill-opacity:0.98765396;fill-rule:nonzero;stroke:none"
                         d="m 20.238,208.449 -3.625,-0.972 7.782,-29.039 -1.157,-0.309 -7.781,29.039 -3.625,-0.973 1.57,2.551 1.571,2.547 z" /><path
                         inkscape:connector-curvature="0"
                         id="path550"
                         style="fill:#000000;fill-opacity:0.98765396;fill-rule:nonzero;stroke:none"
                         d="m 33.816,208.449 3.629,-0.972 -7.781,-29.039 1.152,-0.309 7.782,29.039 3.629,-0.973 -1.571,2.551 -1.57,2.547 -2.633,-1.422 z" /></g><g
                       id="g791"><path
                         d="m 118.48737,165.99484 c 0,6.31419 -5.11621,11.43166 -11.4304,11.43166 -6.31545,0 -11.431663,-5.11747 -11.431663,-11.43166 0,-6.31545 5.116213,-11.43166 11.431663,-11.43166 6.31419,0 11.4304,5.11621 11.4304,11.43166 z"
                         style="fill:#6699cc;fill-opacity:1;fill-rule:nonzero;stroke:#000000;stroke-width:0.90000004;stroke-miterlimit:4;stroke-dasharray:none"
                         id="path554"
                         inkscape:connector-curvature="0" /><text
                         y="171.7756"
                         x="102.6965"
                         style="font-style:normal;font-variant:normal;font-weight:normal;font-stretch:normal;font-size:17.65117073px;font-family:Inconsolata;-inkscape-font-specification:Inconsolata;writing-mode:lr-tb;fill:#f2f2f2;fill-opacity:1;fill-rule:nonzero;stroke:none"
                         id="text78"><tspan
                           style="font-style:normal;font-variant:normal;font-weight:normal;font-stretch:normal;font-family:Inconsolata;-inkscape-font-specification:Inconsolata;fill:#f2f2f2"
                           x="102.6965"
                           y="171.7756"
                           id="tspan76">d</tspan></text>
</g></g><g
                     transform="translate(-60.089366)"
                     id="g949"><g
                       id="g938"
                       transform="translate(-64.37882,55.00374)"><path
                         inkscape:connector-curvature="0"
                         id="path932"
                         style="fill:#6699cc;fill-opacity:1;fill-rule:nonzero;stroke:#000000;stroke-width:0.90000004;stroke-miterlimit:4;stroke-dasharray:none"
                         d="m 255.42335,167.84176 c 0,6.31419 -5.11621,11.43166 -11.4304,11.43166 -6.31545,0 -11.43166,-5.11747 -11.43166,-11.43166 0,-6.31545 5.11621,-11.43166 11.43166,-11.43166 6.31419,0 11.4304,5.11621 11.4304,11.43166 z" /><text
                         id="text936"
                         style="font-style:normal;font-variant:normal;font-weight:normal;font-stretch:normal;font-size:17.65117073px;font-family:Inconsolata;-inkscape-font-specification:Inconsolata;writing-mode:lr-tb;fill:#f2f2f2;fill-opacity:1;fill-rule:nonzero;stroke:none"
                         x="239.63248"
                         y="171.88388"><tspan
                           id="tspan934"
                           y="171.88388"
                           x="239.63248"
                           style="font-style:normal;font-variant:normal;font-weight:normal;font-stretch:normal;font-family:Inconsolata;-inkscape-font-specification:Inconsolata;fill:#f2f2f2">i</tspan></text>
</g><g
                       transform="translate(-89.63882,55.00374)"
                       id="g947"><path
                         d="m 255.42335,167.84176 c 0,6.31419 -5.11621,11.43166 -11.4304,11.43166 -6.31545,0 -11.43166,-5.11747 -11.43166,-11.43166 0,-6.31545 5.11621,-11.43166 11.43166,-11.43166 6.31419,0 11.4304,5.11621 11.4304,11.43166 z"
                         style="fill:#6699cc;fill-opacity:1;fill-rule:nonzero;stroke:#000000;stroke-width:0.90000004;stroke-miterlimit:4;stroke-dasharray:none"
                         id="path941"
                         inkscape:connector-curvature="0" /><text
                         y="171.88388"
                         x="239.63248"
                         style="font-style:normal;font-variant:normal;font-weight:normal;font-stretch:normal;font-size:17.65117073px;font-family:Inconsolata;-inkscape-font-specification:Inconsolata;writing-mode:lr-tb;fill:#f2f2f2;fill-opacity:1;fill-rule:nonzero;stroke:none"
                         id="text945"><tspan
                           style="font-style:normal;font-variant:normal;font-weight:normal;font-stretch:normal;font-family:Inconsolata;-inkscape-font-specification:Inconsolata;fill:#f2f2f2"
                           x="239.63248"
                           y="171.88388"
                           id="tspan943">o</tspan></text>
</g></g></g><g
                   id="g1082"><g
                     id="g1063"><g
                       id="g540"
                       transform="translate(0,-3.1393331)"><path
                         d="m 20.238,208.449 -3.625,-0.972 7.782,-29.039 -1.157,-0.309 -7.781,29.039 -3.625,-0.973 1.57,2.551 1.571,2.547 z"
                         style="fill:#000000;fill-opacity:0.98765396;fill-rule:nonzero;stroke:none"
                         id="path58"
                         inkscape:connector-curvature="0" /><path
                         d="m 33.816,208.449 3.629,-0.972 -7.781,-29.039 1.152,-0.309 7.782,29.039 3.629,-0.973 -1.571,2.551 -1.57,2.547 -2.633,-1.422 z"
                         style="fill:#000000;fill-opacity:0.98765396;fill-rule:nonzero;stroke:none"
                         id="path60"
                         inkscape:connector-curvature="0" /></g><g
                       id="g782"
                       transform="translate(-0.162203)"><path
                         inkscape:connector-curvature="0"
                         id="path536"
                         style="fill:#6699cc;fill-opacity:1;fill-rule:nonzero;stroke:#000000;stroke-width:0.90000004;stroke-miterlimit:4;stroke-dasharray:none"
                         d="m 38.622733,165.99484 c 0,6.31419 -5.11621,11.43166 -11.4304,11.43166 -6.31545,0 -11.43166,-5.11747 -11.43166,-11.43166 0,-6.31545 5.11621,-11.43166 11.43166,-11.43166 6.31419,0 11.4304,5.11621 11.4304,11.43166 z" /><text
                         y="170.98283"
                         x="23.420288"
                         style="font-variant:normal;font-weight:500;font-size:15.20731544px;font-family:'Noto Sans Mono Med';-inkscape-font-specification:NotoSansMono-Medium;writing-mode:lr-tb;fill:#f2f2f2;fill-opacity:1;fill-rule:nonzero;stroke:none"
                         id="text56"><tspan
                           style="font-style:normal;font-variant:normal;font-weight:normal;font-stretch:normal;font-family:Inconsolata;-inkscape-font-specification:Inconsolata;fill:#f2f2f2"
                           x="23.420288"
                           y="170.98283"
                           id="tspan54">l</tspan></text>
</g></g><g
                     id="g967"
                     transform="translate(-139.954)"><g
                       transform="translate(-64.37882,55.00374)"
                       id="g957"><path
                         d="m 255.42335,167.84176 c 0,6.31419 -5.11621,11.43166 -11.4304,11.43166 -6.31545,0 -11.43166,-5.11747 -11.43166,-11.43166 0,-6.31545 5.11621,-11.43166 11.43166,-11.43166 6.31419,0 11.4304,5.11621 11.4304,11.43166 z"
                         style="fill:#6699cc;fill-opacity:1;fill-rule:nonzero;stroke:#000000;stroke-width:0.90000004;stroke-miterlimit:4;stroke-dasharray:none"
                         id="path951"
                         inkscape:connector-curvature="0" /><text
                         y="171.88388"
                         x="239.63248"
                         style="font-style:normal;font-variant:normal;font-weight:normal;font-stretch:normal;font-size:17.65117073px;font-family:Inconsolata;-inkscape-font-specification:Inconsolata;writing-mode:lr-tb;fill:#f2f2f2;fill-opacity:1;fill-rule:nonzero;stroke:none"
                         id="text955"><tspan
                           style="font-style:normal;font-variant:normal;font-weight:normal;font-stretch:normal;font-family:Inconsolata;-inkscape-font-specification:Inconsolata;fill:#f2f2f2"
                           x="239.63248"
                           y="171.88388"
                           id="tspan953">r</tspan></text>
</g><g
                       id="g965"
                       transform="translate(-89.63882,55.00374)"><path
                         inkscape:connector-curvature="0"
                         id="path959"
                         style="fill:#6699cc;fill-opacity:1;fill-rule:nonzero;stroke:#000000;stroke-width:0.90000004;stroke-miterlimit:4;stroke-dasharray:none"
                         d="m 255.42335,167.84176 c 0,6.31419 -5.11621,11.43166 -11.4304,11.43166 -6.31545,0 -11.43166,-5.11747 -11.43166,-11.43166 0,-6.31545 5.11621,-11.43166 11.43166,-11.43166 6.31419,0 11.4304,5.11621 11.4304,11.43166 z" /><text
                         id="text963"
                         style="font-style:normal;font-variant:normal;font-weight:normal;font-stretch:normal;font-size:17.65117073px;font-family:Inconsolata;-inkscape-font-specification:Inconsolata;writing-mode:lr-tb;fill:#f2f2f2;fill-opacity:1;fill-rule:nonzero;stroke:none"
                         x="239.63248"
                         y="171.88388"><tspan
                           id="tspan961"
                           y="171.88388"
                           x="239.63248"
                           style="font-style:normal;font-variant:normal;font-weight:normal;font-stretch:normal;font-family:Inconsolata;-inkscape-font-specification:Inconsolata;fill:#f2f2f2">t</tspan></text>
</g></g></g></g></g></g></g></g></g></g></svg>