<?xml version="1.0" encoding="UTF-8" standalone="no"?>
<!-- Created with Inkscape (http://www.inkscape.org/) -->

<svg
   xmlns:dc="http://purl.org/dc/elements/1.1/"
   xmlns:cc="http://creativecommons.org/ns#"
   xmlns:rdf="http://www.w3.org/1999/02/22-rdf-syntax-ns#"
   xmlns:svg="http://www.w3.org/2000/svg"
   xmlns="http://www.w3.org/2000/svg"
   xmlns:sodipodi="http://sodipodi.sourceforge.net/DTD/sodipodi-0.dtd"
   xmlns:inkscape="http://www.inkscape.org/namespaces/inkscape"
   version="1.1"
   id="svg2"
   xml:space="preserve"
   width="680.23499"
   height="242.66701"
   viewBox="0 0 680.23499 242.66701"
   sodipodi:docname="hash1.svg"
   inkscape:version="0.92.4 5da689c313, 2019-01-14"><metadata
     id="metadata8"><rdf:RDF><cc:Work
         rdf:about=""><dc:format>image/svg+xml</dc:format><dc:type
           rdf:resource="http://purl.org/dc/dcmitype/StillImage" /><dc:title></dc:title></cc:Work></rdf:RDF></metadata><defs
     id="defs6" /><sodipodi:namedview
     pagecolor="#ffffff"
     bordercolor="#666666"
     borderopacity="1"
     objecttolerance="10"
     gridtolerance="10"
     guidetolerance="10"
     inkscape:pageopacity="0"
     inkscape:pageshadow="2"
     inkscape:window-width="1596"
     inkscape:window-height="870"
     id="namedview4"
     showgrid="false"
     showguides="true"
     inkscape:guide-bbox="true"
     inkscape:zoom="0.74844266"
     inkscape:cx="270.55766"
     inkscape:cy="281.87418"
     inkscape:window-x="2"
     inkscape:window-y="28"
     inkscape:window-maximized="0"
     inkscape:current-layer="g10" /><g
     id="g10"
     inkscape:groupmode="layer"
     inkscape:label="hash1"
     transform="matrix(1.3333333,0,0,1.3333333,0,4.0666753e-6)"><g
       id="g2580"
       transform="translate(3)"><g
         id="g2449"><g
           id="g1406"><g
             transform="translate(0,0.69702721)"
             id="g1144"><path
               inkscape:connector-curvature="0"
               id="path98"
               style="fill:#000000;fill-opacity:0.98765396;fill-rule:nonzero;stroke:none"
               d="m 43.535,35.129 h 24.008 v 0.73 H 43.535 Z" /><path
               inkscape:connector-curvature="0"
               id="path100"
               style="fill:#000000;fill-opacity:0.98765396;fill-rule:nonzero;stroke:none"
               d="m 70.621,35.492 -2.309,1.332 -2.304,1.332 v -5.324 l 2.304,1.332 z" /></g><text
             y="40.757618"
             x="4.4617653"
             style="font-variant:normal;font-weight:500;font-size:13.94378853px;font-family:'Noto Sans Mono Med';-inkscape-font-specification:NotoSansMono-Medium;writing-mode:lr-tb;fill:#000000;fill-opacity:1;fill-rule:nonzero;stroke:none"
             id="text104"><tspan
               y="40.757618"
               x="4.4617653"
               style="font-style:normal;font-variant:normal;font-weight:normal;font-stretch:normal;font-family:Inconsolata;-inkscape-font-specification:Inconsolata"
               sodipodi:role="line"
               id="tspan102">%hist</tspan></text>
</g><g
           id="g2318"><text
             y="18.899254"
             x="75.880104"
             style="font-style:normal;font-variant:normal;font-weight:normal;font-stretch:normal;font-size:13.94378853px;font-family:Inconsolata;-inkscape-font-specification:Inconsolata;writing-mode:lr-tb;fill:#000000;fill-opacity:1;fill-rule:nonzero;stroke:none"
             id="text158"><tspan
               y="18.899254"
               x="75.880104"
               sodipodi:role="line"
               id="tspan156">hist</tspan></text>
<g
             id="g1395"><path
               inkscape:connector-curvature="0"
               id="path106"
               style="fill:#e7e7e7;fill-opacity:1;fill-rule:nonzero;stroke:none"
               d="m 76.898,21.223 h 94.285 V 125.008 H 76.898 Z" /><g
               id="g1269"
               transform="translate(-3.4713758e-8,-0.81615264)"><g
                 transform="translate(6.790025,-6.1230554e-6)"
                 id="g1163"><text
                   y="42.558823"
                   x="82.63031"
                   style="font-variant:normal;font-weight:500;font-size:13.94378853px;font-family:'Noto Sans Mono Med';-inkscape-font-specification:NotoSansMono-Medium;writing-mode:lr-tb;fill:#000000;fill-opacity:1;fill-rule:nonzero;stroke:none"
                   id="text1140"><tspan
                     y="42.558823"
                     x="82.63031"
                     style="font-style:normal;font-variant:normal;font-weight:normal;font-stretch:normal;font-family:Inconsolata;-inkscape-font-specification:Inconsolata"
                     sodipodi:role="line"
                     id="tspan1138">'a'</tspan></text>
<g
                   id="g1150"
                   transform="translate(66.224074,2.505202)"><path
                     inkscape:connector-curvature="0"
                     id="path1146"
                     style="fill:#000000;fill-opacity:0.98765396;fill-rule:nonzero;stroke:none"
                     d="m 43.535,35.129 h 24.008 v 0.73 H 43.535 Z" /><path
                     inkscape:connector-curvature="0"
                     id="path1148"
                     style="fill:#000000;fill-opacity:0.98765396;fill-rule:nonzero;stroke:none"
                     d="m 70.621,35.492 -2.309,1.332 -2.304,1.332 v -5.324 l 2.304,1.332 z" /></g><text
                   id="text1154"
                   style="font-variant:normal;font-weight:500;font-size:13.94378853px;font-family:'Noto Sans Mono Med';-inkscape-font-specification:NotoSansMono-Medium;writing-mode:lr-tb;fill:#000000;fill-opacity:1;fill-rule:nonzero;stroke:none"
                   x="144.75931"
                   y="42.349663"><tspan
                     id="tspan1152"
                     sodipodi:role="line"
                     style="font-style:normal;font-variant:normal;font-weight:normal;font-stretch:normal;font-family:Inconsolata;-inkscape-font-specification:Inconsolata"
                     x="144.75931"
                     y="42.349663">1</tspan></text>
</g><g
                 id="g1179"
                 transform="translate(6.790025,17.481672)"><text
                   id="text1167"
                   style="font-variant:normal;font-weight:500;font-size:13.94378853px;font-family:'Noto Sans Mono Med';-inkscape-font-specification:NotoSansMono-Medium;writing-mode:lr-tb;fill:#000000;fill-opacity:1;fill-rule:nonzero;stroke:none"
                   x="82.63031"
                   y="42.558823"><tspan
                     id="tspan1165"
                     sodipodi:role="line"
                     style="font-style:normal;font-variant:normal;font-weight:normal;font-stretch:normal;font-family:Inconsolata;-inkscape-font-specification:Inconsolata"
                     x="82.63031"
                     y="42.558823">'o'</tspan></text>
<g
                   transform="translate(66.224074,2.505202)"
                   id="g1173"><path
                     d="m 43.535,35.129 h 24.008 v 0.73 H 43.535 Z"
                     style="fill:#000000;fill-opacity:0.98765396;fill-rule:nonzero;stroke:none"
                     id="path1169"
                     inkscape:connector-curvature="0" /><path
                     d="m 70.621,35.492 -2.309,1.332 -2.304,1.332 v -5.324 l 2.304,1.332 z"
                     style="fill:#000000;fill-opacity:0.98765396;fill-rule:nonzero;stroke:none"
                     id="path1171"
                     inkscape:connector-curvature="0" /></g><text
                   y="42.349663"
                   x="144.75931"
                   style="font-variant:normal;font-weight:500;font-size:13.94378853px;font-family:'Noto Sans Mono Med';-inkscape-font-specification:NotoSansMono-Medium;writing-mode:lr-tb;fill:#000000;fill-opacity:1;fill-rule:nonzero;stroke:none"
                   id="text1177"><tspan
                     y="42.349663"
                     x="144.75931"
                     style="font-style:normal;font-variant:normal;font-weight:normal;font-stretch:normal;font-family:Inconsolata;-inkscape-font-specification:Inconsolata"
                     sodipodi:role="line"
                     id="tspan1175">1</tspan></text>
</g><g
                 transform="translate(6.790025,34.92152)"
                 id="g1195"><text
                   y="42.558823"
                   x="82.63031"
                   style="font-variant:normal;font-weight:500;font-size:13.94378853px;font-family:'Noto Sans Mono Med';-inkscape-font-specification:NotoSansMono-Medium;writing-mode:lr-tb;fill:#000000;fill-opacity:1;fill-rule:nonzero;stroke:none"
                   id="text1183"><tspan
                     y="42.558823"
                     x="82.63031"
                     style="font-style:normal;font-variant:normal;font-weight:normal;font-stretch:normal;font-family:Inconsolata;-inkscape-font-specification:Inconsolata"
                     sodipodi:role="line"
                     id="tspan1181">'p'</tspan></text>
<g
                   id="g1189"
                   transform="translate(66.224074,2.505202)"><path
                     inkscape:connector-curvature="0"
                     id="path1185"
                     style="fill:#000000;fill-opacity:0.98765396;fill-rule:nonzero;stroke:none"
                     d="m 43.535,35.129 h 24.008 v 0.73 H 43.535 Z" /><path
                     inkscape:connector-curvature="0"
                     id="path1187"
                     style="fill:#000000;fill-opacity:0.98765396;fill-rule:nonzero;stroke:none"
                     d="m 70.621,35.492 -2.309,1.332 -2.304,1.332 v -5.324 l 2.304,1.332 z" /></g><text
                   id="text1193"
                   style="font-variant:normal;font-weight:500;font-size:13.94378853px;font-family:'Noto Sans Mono Med';-inkscape-font-specification:NotoSansMono-Medium;writing-mode:lr-tb;fill:#000000;fill-opacity:1;fill-rule:nonzero;stroke:none"
                   x="144.75931"
                   y="42.349663"><tspan
                     id="tspan1191"
                     sodipodi:role="line"
                     style="font-style:normal;font-variant:normal;font-weight:normal;font-stretch:normal;font-family:Inconsolata;-inkscape-font-specification:Inconsolata"
                     x="144.75931"
                     y="42.349663">1</tspan></text>
</g><g
                 id="g1211"
                 transform="translate(6.790025,54.578434)"><text
                   id="text1199"
                   style="font-variant:normal;font-weight:500;font-size:13.94378853px;font-family:'Noto Sans Mono Med';-inkscape-font-specification:NotoSansMono-Medium;writing-mode:lr-tb;fill:#000000;fill-opacity:1;fill-rule:nonzero;stroke:none"
                   x="82.63031"
                   y="42.558823"><tspan
                     id="tspan1197"
                     sodipodi:role="line"
                     style="font-style:normal;font-variant:normal;font-weight:normal;font-stretch:normal;font-family:Inconsolata;-inkscape-font-specification:Inconsolata"
                     x="82.63031"
                     y="42.558823">'r'</tspan></text>
<g
                   transform="translate(66.224074,2.505202)"
                   id="g1205"><path
                     d="m 43.535,35.129 h 24.008 v 0.73 H 43.535 Z"
                     style="fill:#000000;fill-opacity:0.98765396;fill-rule:nonzero;stroke:none"
                     id="path1201"
                     inkscape:connector-curvature="0" /><path
                     d="m 70.621,35.492 -2.309,1.332 -2.304,1.332 v -5.324 l 2.304,1.332 z"
                     style="fill:#000000;fill-opacity:0.98765396;fill-rule:nonzero;stroke:none"
                     id="path1203"
                     inkscape:connector-curvature="0" /></g><text
                   y="42.349663"
                   x="144.75931"
                   style="font-variant:normal;font-weight:500;font-size:13.94378853px;font-family:'Noto Sans Mono Med';-inkscape-font-specification:NotoSansMono-Medium;writing-mode:lr-tb;fill:#000000;fill-opacity:1;fill-rule:nonzero;stroke:none"
                   id="text1209"><tspan
                     y="42.349663"
                     x="144.75931"
                     style="font-style:normal;font-variant:normal;font-weight:normal;font-stretch:normal;font-family:Inconsolata;-inkscape-font-specification:Inconsolata"
                     sodipodi:role="line"
                     id="tspan1207">1</tspan></text>
</g><g
                 transform="translate(6.790025,71.920679)"
                 id="g1227"><text
                   y="42.558823"
                   x="82.63031"
                   style="font-variant:normal;font-weight:500;font-size:13.94378853px;font-family:'Noto Sans Mono Med';-inkscape-font-specification:NotoSansMono-Medium;writing-mode:lr-tb;fill:#000000;fill-opacity:1;fill-rule:nonzero;stroke:none"
                   id="text1215"><tspan
                     y="42.558823"
                     x="82.63031"
                     style="font-style:normal;font-variant:normal;font-weight:normal;font-stretch:normal;font-family:Inconsolata;-inkscape-font-specification:Inconsolata"
                     sodipodi:role="line"
                     id="tspan1213">'t'</tspan></text>
<g
                   id="g1221"
                   transform="translate(66.224074,2.505202)"><path
                     inkscape:connector-curvature="0"
                     id="path1217"
                     style="fill:#000000;fill-opacity:0.98765396;fill-rule:nonzero;stroke:none"
                     d="m 43.535,35.129 h 24.008 v 0.73 H 43.535 Z" /><path
                     inkscape:connector-curvature="0"
                     id="path1219"
                     style="fill:#000000;fill-opacity:0.98765396;fill-rule:nonzero;stroke:none"
                     d="m 70.621,35.492 -2.309,1.332 -2.304,1.332 v -5.324 l 2.304,1.332 z" /></g><text
                   id="text1225"
                   style="font-variant:normal;font-weight:500;font-size:13.94378853px;font-family:'Noto Sans Mono Med';-inkscape-font-specification:NotoSansMono-Medium;writing-mode:lr-tb;fill:#000000;fill-opacity:1;fill-rule:nonzero;stroke:none"
                   x="144.75931"
                   y="42.349663"><tspan
                     id="tspan1223"
                     sodipodi:role="line"
                     style="font-style:normal;font-variant:normal;font-weight:normal;font-stretch:normal;font-family:Inconsolata;-inkscape-font-specification:Inconsolata"
                     x="144.75931"
                     y="42.349663">1</tspan></text>
</g></g></g></g></g><g
         transform="translate(-4.9600469)"
         id="g2395"><g
           id="g1438"
           transform="translate(13.462984,-0.4880326)"><text
             id="text1399"
             style="font-variant:normal;font-weight:500;font-size:13.94378853px;font-family:'Noto Sans Mono Med';-inkscape-font-specification:NotoSansMono-Medium;writing-mode:lr-tb;fill:#000000;fill-opacity:1;fill-rule:nonzero;stroke:none"
             x="191.3607"
             y="40.757618"><tspan
               id="tspan1397"
               sodipodi:role="line"
               style="font-style:normal;font-variant:normal;font-weight:normal;font-stretch:normal;font-family:Inconsolata;-inkscape-font-specification:Inconsolata"
               x="191.3607"
               y="40.757618">%rev_hist</tspan></text>
<g
             transform="translate(-3.8971797,-21.557745)"
             id="g1430"><g
               transform="translate(219.45569,22.742805)"
               id="g1412"><path
                 inkscape:connector-curvature="0"
                 id="path1408"
                 style="fill:#000000;fill-opacity:0.98765396;fill-rule:nonzero;stroke:none"
                 d="m 43.535,35.129 h 24.008 v 0.73 H 43.535 Z" /><path
                 inkscape:connector-curvature="0"
                 id="path1410"
                 style="fill:#000000;fill-opacity:0.98765396;fill-rule:nonzero;stroke:none"
                 d="m 70.621,35.492 -2.309,1.332 -2.304,1.332 v -5.324 l 2.304,1.332 z" /></g></g></g><g
           id="g2271"
           transform="translate(-4.9600469)"><g
             id="g1735"><text
               y="18.899254"
               x="307.40811"
               style="font-style:normal;font-variant:normal;font-weight:normal;font-stretch:normal;font-size:13.94378853px;font-family:Inconsolata;-inkscape-font-specification:Inconsolata;writing-mode:lr-tb;fill:#000000;fill-opacity:1;fill-rule:nonzero;stroke:none"
               id="text1667"><tspan
                 y="18.899254"
                 x="307.40811"
                 sodipodi:role="line"
                 id="tspan1665">hist</tspan></text>
<g
               id="g1718"><path
                 d="m 308.426,21.223 h 32.586 V 168.34 h -32.586 z"
                 style="fill:#e7e7e7;fill-opacity:1;fill-rule:nonzero;stroke:none"
                 id="path56"
                 inkscape:connector-curvature="0" /><g
                 transform="translate(0,-0.00470288)"
                 id="g1704"><g
                   id="g1682"><g
                     transform="translate(339.61173,-2.586)"
                     id="g1552"><path
                       sodipodi:nodetypes="cccccccccc"
                       inkscape:connector-curvature="0"
                       id="path1548"
                       transform="matrix(0.75000002,0,0,0.75000002,-339.61173,2.5859969)"
                       d="m 540.82617,40.328125 v 3.0625 h -96.80738 v 0.972656 h 96.80738 v 3.0625 l 3.07227,-1.77539 3.07812,-1.775391 -3.07812,-1.771484 z"
                       style="fill:#000000;fill-opacity:0.98765396;fill-rule:nonzero;stroke:none;stroke-width:1.33333325" /></g><text
                     id="text1675"
                     style="font-variant:normal;font-weight:500;font-size:13.94378853px;font-family:'Noto Sans Mono Med';-inkscape-font-specification:NotoSansMono-Medium;writing-mode:lr-tb;fill:#000000;fill-opacity:1;fill-rule:nonzero;stroke:none"
                     x="319.78323"
                     y="37.258175"><tspan
                       id="tspan1673"
                       sodipodi:role="line"
                       style="font-style:normal;font-variant:normal;font-weight:normal;font-stretch:normal;font-family:Inconsolata;-inkscape-font-specification:Inconsolata"
                       x="319.78323"
                       y="37.258175">1</tspan></text>
</g><g
                   id="g1692"
                   transform="translate(0.41831366,123.75698)"><g
                     id="g1686"
                     transform="translate(339.61173,-2.586)"><path
                       style="fill:#000000;fill-opacity:0.98765396;fill-rule:nonzero;stroke:none;stroke-width:1.33333325"
                       d="m 540.82617,40.328125 v 3.0625 h -96.80738 v 0.972656 h 96.80738 v 3.0625 l 3.07227,-1.77539 3.07812,-1.775391 -3.07812,-1.771484 z"
                       transform="matrix(0.75000002,0,0,0.75000002,-339.61173,2.5859969)"
                       id="path1684"
                       inkscape:connector-curvature="0"
                       sodipodi:nodetypes="cccccccccc" /></g><text
                     y="37.258175"
                     x="319.78323"
                     style="font-variant:normal;font-weight:500;font-size:13.94378853px;font-family:'Noto Sans Mono Med';-inkscape-font-specification:NotoSansMono-Medium;writing-mode:lr-tb;fill:#000000;fill-opacity:1;fill-rule:nonzero;stroke:none"
                     id="text1690"><tspan
                       y="37.258175"
                       x="319.78323"
                       style="font-style:normal;font-variant:normal;font-weight:normal;font-stretch:normal;font-family:Inconsolata;-inkscape-font-specification:Inconsolata"
                       sodipodi:role="line"
                       id="tspan1688">2</tspan></text>
</g></g></g></g><g
             id="g2202"><g
               id="g2046"
               transform="translate(0,1.9605984e-6)"><path
                 d="m 413.305,21.223 h 96.871 v 70.676 h -96.871 z"
                 style="fill:#e7e7e7;fill-opacity:1;fill-rule:nonzero;stroke:none"
                 id="path14"
                 inkscape:connector-curvature="0" /><g
                 transform="translate(2.0841331,1.4982066)"
                 id="g1656"><g
                   id="g1595"
                   transform="translate(-0.1254941,1.3727881e-5)"><text
                     id="text1482"
                     style="font-variant:normal;font-weight:500;font-size:13.94378853px;font-family:'Noto Sans Mono Med';-inkscape-font-specification:NotoSansMono-Medium;writing-mode:lr-tb;fill:#000000;fill-opacity:1;fill-rule:nonzero;stroke:none"
                     x="424.9321"
                     y="34.764462"><tspan
                       id="tspan1480"
                       sodipodi:role="line"
                       style="font-style:normal;font-variant:normal;font-weight:normal;font-stretch:normal;font-family:Inconsolata;-inkscape-font-specification:Inconsolata"
                       x="424.9321"
                       y="34.764462">0</tspan></text>
<g
                     transform="translate(397.1886,-5.2891599)"
                     id="g1488"><path
                       d="m 43.535,35.129 h 24.008 v 0.73 H 43.535 Z"
                       style="fill:#000000;fill-opacity:0.98765396;fill-rule:nonzero;stroke:none"
                       id="path1484"
                       inkscape:connector-curvature="0" /><path
                       d="m 70.621,35.492 -2.309,1.332 -2.304,1.332 v -5.324 l 2.304,1.332 z"
                       style="fill:#000000;fill-opacity:0.98765396;fill-rule:nonzero;stroke:none"
                       id="path1486"
                       inkscape:connector-curvature="0" /></g><text
                     y="34.555302"
                     x="475.72385"
                     style="font-variant:normal;font-weight:500;font-size:13.94378853px;font-family:'Noto Sans Mono Med';-inkscape-font-specification:NotoSansMono-Medium;writing-mode:lr-tb;fill:#000000;fill-opacity:1;fill-rule:nonzero;stroke:none"
                     id="text1492"><tspan
                       y="34.555302"
                       x="475.72385"
                       style="font-style:normal;font-variant:normal;font-weight:normal;font-stretch:normal;font-family:Inconsolata;-inkscape-font-specification:Inconsolata"
                       sodipodi:role="line"
                       id="tspan1490">'p'</tspan></text>
</g><g
                   id="g1604"
                   transform="translate(-0.55775154,0.62411708)"><text
                     y="52.246132"
                     x="424.9321"
                     style="font-variant:normal;font-weight:500;font-size:13.94378853px;font-family:'Noto Sans Mono Med';-inkscape-font-specification:NotoSansMono-Medium;writing-mode:lr-tb;fill:#000000;fill-opacity:1;fill-rule:nonzero;stroke:none"
                     id="text1498"><tspan
                       y="52.246132"
                       x="424.9321"
                       style="font-style:normal;font-variant:normal;font-weight:normal;font-stretch:normal;font-family:Inconsolata;-inkscape-font-specification:Inconsolata"
                       sodipodi:role="line"
                       id="tspan1496">1</tspan></text>
<g
                     id="g1504"
                     transform="translate(397.1886,12.19251)"><path
                       inkscape:connector-curvature="0"
                       id="path1500"
                       style="fill:#000000;fill-opacity:0.98765396;fill-rule:nonzero;stroke:none"
                       d="m 43.535,35.129 h 24.008 v 0.73 H 43.535 Z" /><path
                       inkscape:connector-curvature="0"
                       id="path1502"
                       style="fill:#000000;fill-opacity:0.98765396;fill-rule:nonzero;stroke:none"
                       d="m 70.621,35.492 -2.309,1.332 -2.304,1.332 v -5.324 l 2.304,1.332 z" /></g><text
                     id="text1508"
                     style="font-variant:normal;font-weight:500;font-size:13.94378853px;font-family:'Noto Sans Mono Med';-inkscape-font-specification:NotoSansMono-Medium;writing-mode:lr-tb;fill:#000000;fill-opacity:1;fill-rule:nonzero;stroke:none"
                     x="475.72385"
                     y="52.036972"><tspan
                       id="tspan1506"
                       sodipodi:role="line"
                       style="font-style:normal;font-variant:normal;font-weight:normal;font-stretch:normal;font-family:Inconsolata;-inkscape-font-specification:Inconsolata"
                       x="475.72385"
                       y="52.036972">'a'</tspan></text>
</g><g
                   id="g1613"
                   transform="translate(-0.13943789,-0.82941188)"><text
                     id="text1514"
                     style="font-variant:normal;font-weight:500;font-size:13.94378853px;font-family:'Noto Sans Mono Med';-inkscape-font-specification:NotoSansMono-Medium;writing-mode:lr-tb;fill:#000000;fill-opacity:1;fill-rule:nonzero;stroke:none"
                     x="424.9321"
                     y="69.685982"><tspan
                       id="tspan1512"
                       sodipodi:role="line"
                       style="font-style:normal;font-variant:normal;font-weight:normal;font-stretch:normal;font-family:Inconsolata;-inkscape-font-specification:Inconsolata"
                       x="424.9321"
                       y="69.685982">2</tspan></text>
<g
                     transform="translate(397.1886,29.63236)"
                     id="g1520"><path
                       d="m 43.535,35.129 h 24.008 v 0.73 H 43.535 Z"
                       style="fill:#000000;fill-opacity:0.98765396;fill-rule:nonzero;stroke:none"
                       id="path1516"
                       inkscape:connector-curvature="0" /><path
                       d="m 70.621,35.492 -2.309,1.332 -2.304,1.332 v -5.324 l 2.304,1.332 z"
                       style="fill:#000000;fill-opacity:0.98765396;fill-rule:nonzero;stroke:none"
                       id="path1518"
                       inkscape:connector-curvature="0" /></g><text
                     y="69.476822"
                     x="475.72385"
                     style="font-variant:normal;font-weight:500;font-size:13.94378853px;font-family:'Noto Sans Mono Med';-inkscape-font-specification:NotoSansMono-Medium;writing-mode:lr-tb;fill:#000000;fill-opacity:1;fill-rule:nonzero;stroke:none"
                     id="text1524"><tspan
                       y="69.476822"
                       x="475.72385"
                       style="font-style:normal;font-variant:normal;font-weight:normal;font-stretch:normal;font-family:Inconsolata;-inkscape-font-specification:Inconsolata"
                       sodipodi:role="line"
                       id="tspan1522">'o'</tspan></text>
</g><g
                   id="g1622"
                   transform="translate(0,-4.5000047)"><text
                     y="89.342896"
                     x="424.9321"
                     style="font-variant:normal;font-weight:500;font-size:13.94378853px;font-family:'Noto Sans Mono Med';-inkscape-font-specification:NotoSansMono-Medium;writing-mode:lr-tb;fill:#000000;fill-opacity:1;fill-rule:nonzero;stroke:none"
                     id="text1530"><tspan
                       y="89.342896"
                       x="424.9321"
                       style="font-style:normal;font-variant:normal;font-weight:normal;font-stretch:normal;font-family:Inconsolata;-inkscape-font-specification:Inconsolata"
                       sodipodi:role="line"
                       id="tspan1528">4</tspan></text>
<g
                     id="g1536"
                     transform="translate(397.1886,49.289277)"><path
                       inkscape:connector-curvature="0"
                       id="path1532"
                       style="fill:#000000;fill-opacity:0.98765396;fill-rule:nonzero;stroke:none"
                       d="m 43.535,35.129 h 24.008 v 0.73 H 43.535 Z" /><path
                       inkscape:connector-curvature="0"
                       id="path1534"
                       style="fill:#000000;fill-opacity:0.98765396;fill-rule:nonzero;stroke:none"
                       d="m 70.621,35.492 -2.309,1.332 -2.304,1.332 v -5.324 l 2.304,1.332 z" /></g><text
                     id="text1540"
                     style="font-variant:normal;font-weight:500;font-size:13.94378853px;font-family:'Noto Sans Mono Med';-inkscape-font-specification:NotoSansMono-Medium;writing-mode:lr-tb;fill:#000000;fill-opacity:1;fill-rule:nonzero;stroke:none"
                     x="475.72385"
                     y="89.133736"><tspan
                       id="tspan1538"
                       sodipodi:role="line"
                       style="font-style:normal;font-variant:normal;font-weight:normal;font-stretch:normal;font-family:Inconsolata;-inkscape-font-specification:Inconsolata"
                       x="475.72385"
                       y="89.133736">'t'</tspan></text>
</g></g><text
                 y="18.899254"
                 x="412.87622"
                 style="font-style:normal;font-variant:normal;font-weight:normal;font-stretch:normal;font-size:13.94378853px;font-family:Inconsolata;-inkscape-font-specification:Inconsolata;writing-mode:lr-tb;fill:#000000;fill-opacity:1;fill-rule:nonzero;stroke:none"
                 id="text1671"><tspan
                   y="18.899254"
                   x="412.87622"
                   sodipodi:role="line"
                   id="tspan1669">array</tspan></text>
</g><g
               id="g2008"
               transform="translate(0,-2.8344632)"><g
                 id="g1990"><path
                   inkscape:connector-curvature="0"
                   id="path74"
                   style="fill:#e7e7e7;fill-opacity:1;fill-rule:nonzero;stroke:none"
                   d="m 413.305,143.77 h 96.871 v 27.492 h -96.871 z" /><g
                   transform="translate(1.8052573,127.49243)"
                   id="g1897"><text
                     y="34.764462"
                     x="424.9321"
                     style="font-variant:normal;font-weight:500;font-size:13.94378853px;font-family:'Noto Sans Mono Med';-inkscape-font-specification:NotoSansMono-Medium;writing-mode:lr-tb;fill:#000000;fill-opacity:1;fill-rule:nonzero;stroke:none"
                     id="text1885"><tspan
                       y="34.764462"
                       x="424.9321"
                       style="font-style:normal;font-variant:normal;font-weight:normal;font-stretch:normal;font-family:Inconsolata;-inkscape-font-specification:Inconsolata"
                       sodipodi:role="line"
                       id="tspan1883">1</tspan></text>
<g
                     id="g1891"
                     transform="translate(397.1886,-5.2891599)"><path
                       inkscape:connector-curvature="0"
                       id="path1887"
                       style="fill:#000000;fill-opacity:0.98765396;fill-rule:nonzero;stroke:none"
                       d="m 43.535,35.129 h 24.008 v 0.73 H 43.535 Z" /><path
                       inkscape:connector-curvature="0"
                       id="path1889"
                       style="fill:#000000;fill-opacity:0.98765396;fill-rule:nonzero;stroke:none"
                       d="m 70.621,35.492 -2.309,1.332 -2.304,1.332 v -5.324 l 2.304,1.332 z" /></g><text
                     id="text1895"
                     style="font-variant:normal;font-weight:500;font-size:13.94378853px;font-family:'Noto Sans Mono Med';-inkscape-font-specification:NotoSansMono-Medium;writing-mode:lr-tb;fill:#000000;fill-opacity:1;fill-rule:nonzero;stroke:none"
                     x="475.72385"
                     y="34.555302"><tspan
                       id="tspan1893"
                       sodipodi:role="line"
                       style="font-style:normal;font-variant:normal;font-weight:normal;font-stretch:normal;font-family:Inconsolata;-inkscape-font-specification:Inconsolata"
                       x="475.72385"
                       y="34.555302">'r'</tspan></text>
</g></g><text
                 id="text1994"
                 style="font-style:normal;font-variant:normal;font-weight:normal;font-stretch:normal;font-size:13.94378853px;font-family:Inconsolata;-inkscape-font-specification:Inconsolata;writing-mode:lr-tb;fill:#000000;fill-opacity:1;fill-rule:nonzero;stroke:none"
                 x="412.62177"
                 y="141.5289"><tspan
                   id="tspan1992"
                   sodipodi:role="line"
                   x="412.62177"
                   y="141.5289">array</tspan></text>
</g></g></g></g></g></g></svg>