<?xml version="1.0" encoding="UTF-8" standalone="no"?>
<!-- Created with Inkscape (http://www.inkscape.org/) -->

<svg
   xmlns:dc="http://purl.org/dc/elements/1.1/"
   xmlns:cc="http://creativecommons.org/ns#"
   xmlns:rdf="http://www.w3.org/1999/02/22-rdf-syntax-ns#"
   xmlns:svg="http://www.w3.org/2000/svg"
   xmlns="http://www.w3.org/2000/svg"
   xmlns:xlink="http://www.w3.org/1999/xlink"
   xmlns:sodipodi="http://sodipodi.sourceforge.net/DTD/sodipodi-0.dtd"
   xmlns:inkscape="http://www.inkscape.org/namespaces/inkscape"
   version="1.0"
   width="450"
   height="450"
   viewBox="0 0 414.77199 388.70223"
   id="Layer_2"
   xml:space="preserve"
   inkscape:version="0.92.4 5da689c313, 2019-01-14"
   sodipodi:docname="International_Morse_Code.svg"><metadata
   id="metadata3375"><rdf:RDF><cc:Work
       rdf:about=""><dc:format>image/svg+xml</dc:format><dc:type
         rdf:resource="http://purl.org/dc/dcmitype/StillImage" /><dc:title></dc:title></cc:Work></rdf:RDF></metadata><sodipodi:namedview
   pagecolor="#ffffff"
   bordercolor="#666666"
   borderopacity="1"
   objecttolerance="10"
   gridtolerance="10"
   guidetolerance="10"
   inkscape:pageopacity="0"
   inkscape:pageshadow="2"
   inkscape:window-width="1596"
   inkscape:window-height="870"
   id="namedview3373"
   showgrid="false"
   inkscape:zoom="1"
   inkscape:cx="36.598202"
   inkscape:cy="232.96513"
   inkscape:window-x="2"
   inkscape:window-y="28"
   inkscape:window-maximized="0"
   inkscape:current-layer="Layer_2"
   inkscape:snap-page="true" />
<defs
   id="defs3017">

































































</defs>

<g
   id="g1332"><rect
     ry="1.1228983"
     y="-13.03488"
     x="0"
     height="414.772"
     width="414.772"
     id="rect433"
     style="opacity:1;vector-effect:none;fill:#ffffff;fill-opacity:1;stroke:none;stroke-width:0.73737246;stroke-linecap:round;stroke-linejoin:miter;stroke-miterlimit:4;stroke-dasharray:none;stroke-dashoffset:0;stroke-opacity:1" /><g
     transform="translate(-1.9527509,-9.0442861)"
     id="g1146"><g
       id="g3132"
       transform="translate(-20.407363,-95.858419)">
<circle
   id="circle3554"
   transform="matrix(1.296365,0,0,1.296365,202.38592,-57.340438)"
   r="3.5550001"
   cy="141.48"
   cx="39.400002" />
<rect
   id="rect3556"
   y="121.45683"
   x="285.73181"
   height="9.217145"
   width="27.651466"
   ry="4.6085725" />
<circle
   id="circle3558"
   transform="matrix(1.296365,0,0,1.296365,220.82023,-57.340438)"
   r="3.5550001"
   cy="141.48"
   cx="39.400002" />
<circle
   id="circle3560"
   transform="matrix(1.296365,0,0,1.296365,202.38592,-38.906127)"
   r="3.5550001"
   cy="141.48"
   cx="39.400002" />
<circle
   id="circle3562"
   transform="matrix(1.296365,0,0,1.296365,220.82023,-38.906126)"
   r="3.5550001"
   cy="141.48"
   cx="39.400002" />
<circle
   id="circle3564"
   transform="matrix(1.296365,0,0,1.296365,239.25454,-38.906126)"
   r="3.5550001"
   cy="141.48"
   cx="39.400002" />
<rect
   id="rect3566"
   y="139.89114"
   x="304.16614"
   height="9.217145"
   width="27.651466"
   ry="4.6085725" />
<circle
   id="circle3568"
   transform="matrix(1.296365,0,0,1.296365,202.38592,-20.471816)"
   r="3.5550001"
   cy="141.48"
   cx="39.400002" />
<rect
   id="rect3570"
   y="158.32545"
   x="267.29752"
   height="9.217145"
   width="27.651466"
   ry="4.6085725" />
<rect
   id="rect3572"
   y="158.32544"
   x="304.16614"
   height="9.217145"
   width="27.651466"
   ry="4.6085725" />
<rect
   id="rect3574"
   y="176.75975"
   x="248.8632"
   height="9.217145"
   width="27.651466"
   ry="4.6085725" />
<circle
   id="circle3576"
   transform="matrix(1.296365,0,0,1.296365,239.25454,-2.0375037)"
   r="3.5550001"
   cy="141.48"
   cx="39.400002" />
<circle
   id="circle3578"
   transform="matrix(1.296365,0,0,1.296365,257.68885,-2.0375037)"
   r="3.5550001"
   cy="141.48"
   cx="39.400002" />
<rect
   id="rect3580"
   y="176.75977"
   x="322.60043"
   height="9.217145"
   width="27.651466"
   ry="4.6085725" />
<rect
   id="rect3588"
   y="195.19408"
   x="248.8632"
   height="9.217145"
   width="27.651466"
   ry="4.6085725" />
<rect
   id="rect3590"
   y="195.19408"
   x="304.16614"
   height="9.217145"
   width="27.651466"
   ry="4.6085725" />
<rect
   id="rect3592"
   y="195.19408"
   x="341.03476"
   height="9.217145"
   width="27.651466"
   ry="4.6085725" />
<circle
   id="circle3594"
   transform="matrix(1.296365,0,0,1.296365,239.25454,16.396807)"
   r="3.5550001"
   cy="141.48"
   cx="39.400002" />
<rect
   id="rect3596"
   y="213.62837"
   x="248.8632"
   height="9.217145"
   width="27.651466"
   ry="4.6085725" />
<rect
   id="rect3598"
   y="213.62839"
   x="285.73181"
   height="9.217145"
   width="27.651466"
   ry="4.6085725" />
<circle
   id="circle3600"
   transform="matrix(1.296365,0,0,1.296365,276.12316,34.831118)"
   r="3.5550001"
   cy="141.48"
   cx="39.400002" />
<circle
   id="circle3602"
   transform="matrix(1.296365,0,0,1.296365,294.55748,34.831118)"
   r="3.5550001"
   cy="141.48"
   cx="39.400002" />
<g
   id="g2615"
   transform="translate(-1.8497366)">
<text
   style="font-size:18px;line-height:0%;font-family:'DejaVu Sans'"
   xml:space="preserve"
   id="text3604"
   y="130.67398"
   x="231.22548">U</text>


<text
   style="font-size:18px;line-height:0%;font-family:'DejaVu Sans'"
   xml:space="preserve"
   id="text3608"
   y="149.10829"
   x="231.74756">V</text>


<text
   style="font-size:18px;line-height:0%;font-family:'DejaVu Sans'"
   xml:space="preserve"
   id="text3612"
   y="167.31757"
   x="229.15523">W</text>


<text
   style="font-size:18px;line-height:0%;font-family:'DejaVu Sans'"
   xml:space="preserve"
   id="text3616"
   y="185.97691"
   x="231.73405">X</text>


<text
   style="font-size:18px;line-height:0%;font-family:'DejaVu Sans'"
   xml:space="preserve"
   id="text3620"
   y="204.41122"
   x="231.76105">Y</text>


<text
   style="font-size:18px;line-height:0%;font-family:'DejaVu Sans'"
   xml:space="preserve"
   id="text3624"
   y="222.84554"
   x="232.27863">Z</text>


</g>
</g><g
       id="g962"><circle
         style="stroke-width:1.29636502"
         id="circle2870"
         r="4.6085777"
         cy="30.210855"
         cx="39.495075" /><rect
         ry="4.6085725"
         rx="4.6085725"
         id="rect3010"
         y="25.598413"
         x="53.329884"
         height="9.217145"
         width="27.651466" /><circle
         style="stroke-width:1.29636502"
         id="circle3324"
         r="4.6085777"
         cy="48.645176"
         cx="76.600021" /><circle
         style="stroke-width:1.29636502"
         id="circle3326"
         r="4.6085777"
         cy="48.940025"
         cx="94.798012" /><circle
         style="stroke-width:1.29636502"
         id="circle3328"
         r="4.6085777"
         cy="48.645176"
         cx="113.22642" /><rect
         ry="4.6085725"
         id="rect3330"
         y="62.467022"
         x="34.895573"
         height="9.217145"
         width="27.651466" /><circle
         style="stroke-width:1.29636502"
         id="circle3332"
         r="4.6085777"
         cy="67.079483"
         cx="76.334984" /><rect
         ry="4.6085725"
         rx="4.6085725"
         id="rect3334"
         y="62.467022"
         x="90.198509"
         height="9.217145"
         width="27.651466" /><circle
         style="stroke-width:1.29636502"
         id="circle3336"
         r="4.6085777"
         cy="67.079483"
         cx="131.72736" /><rect
         ry="4.6085725"
         id="rect3338"
         y="80.901344"
         x="34.895573"
         height="9.217145"
         width="27.651466" /><circle
         style="stroke-width:1.29636502"
         id="circle3340"
         r="4.6085777"
         cy="85.513794"
         cx="76.275352" /><circle
         style="stroke-width:1.29636502"
         id="circle3342"
         r="4.6085777"
         cy="85.691582"
         cx="94.798012" /><circle
         style="stroke-width:1.29636502"
         id="circle3412"
         r="4.6085777"
         cy="103.9481"
         cx="39.495075" /><circle
         style="stroke-width:1.29636502"
         id="circle3414"
         r="4.6085777"
         cy="122.38242"
         cx="39.495075" /><circle
         style="stroke-width:1.29636502"
         id="circle3416"
         r="4.6085777"
         cy="122.38242"
         cx="57.92939" /><rect
         ry="4.6085725"
         id="rect3420"
         y="117.76995"
         x="71.764198"
         height="9.217145"
         width="27.651466" /><circle
         style="stroke-width:1.29636502"
         id="circle3422"
         r="4.6085777"
         cy="122.38242"
         cx="113.23232" /><rect
         ry="4.6085725"
         id="rect3424"
         y="136.20427"
         x="34.895573"
         height="9.217145"
         width="27.651466" /><rect
         ry="4.6085725"
         id="rect3426"
         y="136.20427"
         x="71.764198"
         height="9.217145"
         width="27.651466" /><circle
         style="stroke-width:1.29636502"
         id="circle3428"
         r="4.6085777"
         cy="140.81673"
         cx="113.23232" /><circle
         style="stroke-width:1.29636502"
         id="circle3458"
         r="4.6085777"
         cy="159.25104"
         cx="39.495075" /><circle
         style="stroke-width:1.29636502"
         id="circle3460"
         r="4.6085777"
         cy="159.25104"
         cx="57.92939" /><circle
         style="stroke-width:1.29636502"
         id="circle3462"
         r="4.6085777"
         cy="159.25104"
         cx="76.363701" /><circle
         style="stroke-width:1.29636502"
         id="circle3464"
         r="4.6085777"
         cy="159.25104"
         cx="94.798012" /><circle
         style="stroke-width:1.29636502"
         id="circle3466"
         r="4.6085777"
         cy="177.68535"
         cx="39.495075" /><circle
         style="stroke-width:1.29636502"
         id="circle3468"
         r="4.6085777"
         cy="177.68535"
         cx="57.92939" /><circle
         style="stroke-width:1.29636502"
         id="circle3470"
         r="4.6085777"
         cy="196.11966"
         cx="39.495075" /><rect
         ry="4.6085725"
         id="rect3472"
         y="191.50722"
         x="53.329884"
         height="9.217145"
         width="27.651466" /><rect
         ry="4.6085725"
         id="rect3474"
         y="191.50722"
         x="90.198509"
         height="9.217145"
         width="27.651466" /><rect
         ry="4.6085725"
         id="rect3476"
         y="191.50722"
         x="127.06713"
         height="9.217145"
         width="27.651466" /><rect
         ry="4.6085725"
         id="rect3478"
         y="209.94151"
         x="34.895573"
         height="9.217145"
         width="27.651466" /><circle
         style="stroke-width:1.29636502"
         id="circle3480"
         r="4.6085777"
         cy="214.55397"
         cx="76.363701" /><rect
         ry="4.6085725"
         id="rect3482"
         y="209.94154"
         x="90.198509"
         height="9.217145"
         width="27.651466" /><circle
         style="stroke-width:1.29636502"
         id="circle3484"
         r="4.6085777"
         cy="232.98828"
         cx="39.495075" /><rect
         ry="4.6085725"
         id="rect3486"
         y="228.37584"
         x="53.329884"
         height="9.217145"
         width="27.651466" /><circle
         style="stroke-width:1.29636502"
         id="circle3488"
         r="4.6085777"
         cy="232.98828"
         cx="94.798012" /><circle
         style="stroke-width:1.29636502"
         id="circle3490"
         r="4.6085777"
         cy="232.98828"
         cx="113.23232" /><rect
         ry="4.6085725"
         id="rect3492"
         y="246.81017"
         x="34.895573"
         height="9.217145"
         width="27.651466" /><rect
         ry="4.6085725"
         id="rect3494"
         y="246.81017"
         x="71.764198"
         height="9.217145"
         width="27.651466" /><rect
         ry="4.6085725"
         id="rect3496"
         y="265.24445"
         x="34.895573"
         height="9.217145"
         width="27.651466" /><circle
         style="stroke-width:1.29636502"
         id="circle3498"
         r="4.6085777"
         cy="269.8569"
         cx="76.363701" /><rect
         ry="4.6085725"
         id="rect3500"
         y="283.67877"
         x="34.895573"
         height="9.217145"
         width="27.651466" /><rect
         ry="4.6085725"
         id="rect3502"
         y="283.67877"
         x="71.764198"
         height="9.217145"
         width="27.651466" /><rect
         ry="4.6085725"
         id="rect3504"
         y="283.67877"
         x="108.63283"
         height="9.217145"
         width="27.651466" /><circle
         style="stroke-width:1.29636502"
         id="circle3506"
         r="4.6085777"
         cy="306.72552"
         cx="39.495075" /><rect
         ry="4.6085725"
         id="rect3508"
         y="302.11307"
         x="53.329884"
         height="9.217145"
         width="27.651466" /><rect
         ry="4.6085725"
         id="rect3510"
         y="302.11307"
         x="90.198509"
         height="9.217145"
         width="27.651466" /><circle
         style="stroke-width:1.29636502"
         id="circle3512"
         r="4.6085777"
         cy="306.72552"
         cx="131.66663" /><rect
         ry="4.6085725"
         id="rect3514"
         y="320.54736"
         x="34.895573"
         height="9.217145"
         width="27.651466" /><rect
         ry="4.6085725"
         id="rect3516"
         y="320.54739"
         x="71.764198"
         height="9.217145"
         width="27.651466" /><circle
         style="stroke-width:1.29636502"
         id="circle3518"
         r="4.6085777"
         cy="325.15982"
         cx="113.23232" /><rect
         ry="4.6085725"
         id="rect3520"
         y="320.54739"
         x="127.06713"
         height="9.217145"
         width="27.651466" /><circle
         style="stroke-width:1.29636502"
         id="circle3522"
         r="4.6085777"
         cy="343.59415"
         cx="39.495075" /><rect
         ry="4.6085725"
         id="rect3524"
         y="338.98169"
         x="53.329884"
         height="9.217145"
         width="27.651466" /><circle
         style="stroke-width:1.29636502"
         id="circle3526"
         r="4.6085777"
         cy="343.59415"
         cx="94.798012" /><circle
         style="stroke-width:1.29636502"
         id="circle3528"
         r="4.6085777"
         cy="362.02844"
         cx="76.363701" /><circle
         style="stroke-width:1.29636502"
         id="circle3530"
         r="4.6085777"
         cy="362.02844"
         cx="57.92939" /><circle
         style="stroke-width:1.29636502"
         id="circle3532"
         r="4.6085777"
         cy="362.02844"
         cx="39.495075" /><rect
         ry="4.6085725"
         id="rect3534"
         y="375.85031"
         x="34.895573"
         height="9.217145"
         width="27.651466" /><g
         transform="translate(-1.9730481,-95.858419)"
         id="g2573">
<text
   style="font-size:18px;line-height:0%;font-family:'DejaVu Sans'"
   xml:space="preserve"
   id="text3309"
   y="130.67398"
   x="17.138149">A</text>


<text
   style="font-size:18px;line-height:0%;font-family:'DejaVu Sans'"
   xml:space="preserve"
   id="text3344"
   y="149.10829"
   x="16.953625">B</text>


<text
   style="font-size:18px;line-height:0%;font-family:'DejaVu Sans'"
   xml:space="preserve"
   id="text3350"
   y="167.31757"
   x="16.535072">C</text>


<text
   style="font-size:18px;line-height:0%;font-family:'DejaVu Sans'"
   xml:space="preserve"
   id="text3356"
   y="185.97691"
   x="16.409058">D</text>


<text
   style="font-size:18px;line-height:0%;font-family:'DejaVu Sans'"
   xml:space="preserve"
   id="text3360"
   y="204.41122"
   x="16.904119">E</text>


<text
   style="font-size:18px;line-height:0%;font-family:'DejaVu Sans'"
   xml:space="preserve"
   id="text3364"
   y="222.84554"
   x="17.322672">F</text>


<text
   style="font-size:18px;line-height:0%;font-family:'DejaVu Sans'"
   xml:space="preserve"
   id="text3368"
   y="241.05481"
   x="16.202032">G</text>


<text
   style="font-size:18px;line-height:0%;font-family:'DejaVu Sans'"
   xml:space="preserve"
   id="text3372"
   y="259.71414"
   x="16.634085">H</text>


<text
   style="font-size:18px;line-height:0%;font-family:'DejaVu Sans'"
   xml:space="preserve"
   id="text3376"
   y="278.14847"
   x="20.693594">I</text>


<text
   style="font-size:18px;line-height:0%;font-family:'DejaVu Sans'"
   xml:space="preserve"
   id="text3380"
   y="296.58276"
   x="19.145401">J</text>


<text
   style="font-size:18px;line-height:0%;font-family:'DejaVu Sans'"
   xml:space="preserve"
   id="text3384"
   y="315.01709"
   x="16.481066">K</text>


<text
   style="font-size:18px;line-height:0%;font-family:'DejaVu Sans'"
   xml:space="preserve"
   id="text3388"
   y="333.45139"
   x="17.813232">L</text>


<text
   style="font-size:18px;line-height:0%;font-family:'DejaVu Sans'"
   xml:space="preserve"
   id="text3392"
   y="351.88571"
   x="15.621459">M</text>


<text
   style="font-size:18px;line-height:0%;font-family:'DejaVu Sans'"
   xml:space="preserve"
   id="text3396"
   y="370.32001"
   x="16.683592">N</text>


<text
   style="font-size:18px;line-height:0%;font-family:'DejaVu Sans'"
   xml:space="preserve"
   id="text3400"
   y="388.75433"
   x="16.085016">O</text>


<text
   style="font-size:18px;line-height:0%;font-family:'DejaVu Sans'"
   xml:space="preserve"
   id="text3404"
   y="425.62296"
   x="16.058014">Q</text>


<text
   style="font-size:18px;line-height:0%;font-family:'DejaVu Sans'"
   xml:space="preserve"
   id="text3408"
   y="407.18866"
   x="16.82761">P</text>


<text
   style="font-size:18px;line-height:0%;font-family:'DejaVu Sans'"
   xml:space="preserve"
   id="text3536"
   y="444.05728"
   x="16.022009">R</text>


<text
   style="font-size:18px;line-height:0%;font-family:'DejaVu Sans'"
   xml:space="preserve"
   id="text3540"
   y="462.49158"
   x="17.205658">S</text>


<text
   style="font-size:18px;line-height:0%;font-family:'DejaVu Sans'"
   xml:space="preserve"
   id="text3544"
   y="480.9259"
   x="17.62421">T</text>


</g><use
         xlink:href="#rect3010"
         height="500.99399"
         width="414.772"
         y="0"
         x="0"
         id="use2703"
         transform="translate(-18.43431,18.434311)" /></g><g
       id="g3051"
       transform="translate(-20.407362,-31.56332)">
<use
   xlink:href="#rect3010"
   height="500.99399"
   width="414.772"
   y="0"
   x="0"
   id="use2707"
   transform="translate(213.96763,215.68144)" />
<use
   xlink:href="#rect3010"
   height="500.99399"
   width="414.772"
   y="0"
   x="0"
   id="use2709"
   transform="translate(250.83625,215.68143)" />
<use
   xlink:href="#use2709"
   height="500.99399"
   width="414.772"
   y="0"
   x="0"
   id="use2711" />
<use
   xlink:href="#rect3010"
   height="500.99399"
   width="414.772"
   y="0"
   x="0"
   id="use2713"
   transform="translate(287.70487,215.68143)" />
<use
   xlink:href="#rect3010"
   height="500.99399"
   width="414.772"
   y="0"
   x="0"
   id="use2715"
   transform="translate(324.5735,215.68143)" />
<use
   xlink:href="#circle2870"
   height="500.99399"
   width="414.772"
   y="0"
   x="0"
   id="use2717"
   transform="translate(213.96763,215.68144)" />
<use
   xlink:href="#circle2870"
   height="500.99399"
   width="414.772"
   y="0"
   x="0"
   id="use2719"
   transform="translate(213.96763,234.11575)" />
<use
   xlink:href="#circle2870"
   height="500.99399"
   width="414.772"
   y="0"
   x="0"
   id="use2721"
   transform="translate(232.40194,234.11575)" />
<use
   xlink:href="#rect3010"
   height="500.99399"
   width="414.772"
   y="0"
   x="0"
   id="use2723"
   transform="translate(232.40194,234.11575)" />
<use
   xlink:href="#rect3010"
   height="500.99399"
   width="414.772"
   y="0"
   x="0"
   id="use2725"
   transform="translate(269.27056,234.11575)" />
<use
   xlink:href="#rect3010"
   height="500.99399"
   width="414.772"
   y="0"
   x="0"
   id="use2727"
   transform="translate(306.13918,234.11574)" />
<use
   xlink:href="#circle2870"
   height="500.99399"
   width="414.772"
   y="0"
   x="0"
   id="use2779"
   transform="translate(213.96763,252.55006)" />
<use
   xlink:href="#use2779"
   height="500.99399"
   width="414.772"
   y="0"
   x="0"
   id="use2781"
   transform="translate(18.434309,4.0522843e-6)" />
<use
   xlink:href="#use2781"
   height="500.99399"
   width="414.772"
   y="0"
   x="0"
   id="use2783"
   transform="translate(18.434311)" />
<use
   xlink:href="#use2723"
   height="500.99399"
   width="414.772"
   y="0"
   x="0"
   id="use2785"
   transform="translate(18.434309,18.434308)" />
<use
   xlink:href="#use2785"
   height="500.99399"
   width="414.772"
   y="0"
   x="0"
   id="use2787"
   transform="translate(36.868622)" />
<use
   xlink:href="#use2779"
   height="500.99399"
   width="414.772"
   y="0"
   x="0"
   id="use2789"
   transform="translate(2.324722e-7,18.434311)" />
<use
   xlink:href="#use2789"
   height="500.99399"
   width="414.772"
   y="0"
   x="0"
   id="use2791"
   transform="translate(18.434311)" />
<use
   xlink:href="#use2791"
   height="500.99399"
   width="414.772"
   y="0"
   x="0"
   id="use2793"
   transform="translate(18.434311)" />
<use
   xlink:href="#use2793"
   height="500.99399"
   width="414.772"
   y="0"
   x="0"
   id="use2795"
   transform="translate(18.434311)" />
<use
   xlink:href="#use2785"
   height="500.99399"
   width="414.772"
   y="0"
   x="0"
   id="use2797"
   transform="translate(18.434313,18.434307)" />
<use
   xlink:href="#use2789"
   height="500.99399"
   width="414.772"
   y="0"
   x="0"
   id="use2799"
   transform="translate(-2.3247221e-7,18.434311)" />
<use
   xlink:href="#use2799"
   height="500.99399"
   width="414.772"
   y="0"
   x="0"
   id="use2801"
   transform="translate(18.434311)" />
<use
   xlink:href="#use2801"
   height="500.99399"
   width="414.772"
   y="0"
   x="0"
   id="use2803"
   transform="translate(18.434311)" />
<use
   xlink:href="#use2803"
   height="500.99399"
   width="414.772"
   y="0"
   x="0"
   id="use2805"
   transform="translate(18.434312)" />
<use
   xlink:href="#use2805"
   height="500.99399"
   width="414.772"
   y="0"
   x="0"
   id="use2807"
   transform="translate(18.434311)" />
<use
   xlink:href="#use2789"
   height="500.99399"
   width="414.772"
   y="0"
   x="0"
   id="use2809"
   transform="translate(36.868622,36.868622)" />
<use
   xlink:href="#use2791"
   height="500.99399"
   width="414.772"
   y="0"
   x="0"
   id="use2811"
   transform="translate(36.868622,36.868622)" />
<use
   xlink:href="#use2793"
   height="500.99399"
   width="414.772"
   y="0"
   x="0"
   id="use2813"
   transform="translate(36.868622,36.868622)" />
<use
   xlink:href="#use2795"
   height="500.99399"
   width="414.772"
   y="0"
   x="0"
   id="use2815"
   transform="translate(36.868622,36.868622)" />
<use
   xlink:href="#use2797"
   height="500.99399"
   width="414.772"
   y="0"
   x="0"
   id="use2817"
   transform="translate(-73.737245,36.868622)" />
<use
   xlink:href="#use2779"
   height="500.99399"
   width="414.772"
   y="0"
   x="0"
   id="use2819" />
<use
   xlink:href="#use2781"
   height="500.99399"
   width="414.772"
   y="0"
   x="0"
   id="use2821" />
<use
   xlink:href="#use2783"
   height="500.99399"
   width="414.772"
   y="0"
   x="0"
   id="use2823" />
<use
   xlink:href="#use2785"
   height="500.99399"
   width="414.772"
   y="0"
   x="0"
   id="use2825" />
<use
   xlink:href="#use2787"
   height="500.99399"
   width="414.772"
   y="0"
   x="0"
   id="use2827" />
<use
   xlink:href="#use2779"
   height="500.99399"
   width="414.772"
   y="0"
   x="0"
   id="use2829"
   transform="translate(73.737242,73.737248)" />
<use
   xlink:href="#use2781"
   height="500.99399"
   width="414.772"
   y="0"
   x="0"
   id="use2831"
   transform="translate(73.737244,73.737244)" />
<use
   xlink:href="#use2783"
   height="500.99399"
   width="414.772"
   y="0"
   x="0"
   id="use2833"
   transform="translate(73.737244,73.737244)" />
<use
   xlink:href="#use2825"
   height="500.99399"
   width="414.772"
   y="0"
   x="0"
   id="use2845"
   transform="translate(-55.302932,73.73724)" />
<use
   xlink:href="#use2827"
   height="500.99399"
   width="414.772"
   y="0"
   x="0"
   id="use2847"
   transform="translate(-55.302931,73.737251)" />
<use
   xlink:href="#use2829"
   height="500.99399"
   width="414.772"
   y="0"
   x="0"
   id="use2849"
   transform="translate(36.868622,18.434311)" />
<use
   xlink:href="#use2831"
   height="500.99399"
   width="414.772"
   y="0"
   x="0"
   id="use2851"
   transform="translate(36.868622,18.434311)" />
<use
   xlink:href="#use2845"
   height="500.99399"
   width="414.772"
   y="0"
   x="0"
   id="use2855"
   transform="translate(36.868622,18.434311)" />
<use
   xlink:href="#use2847"
   height="500.99399"
   width="414.772"
   y="0"
   x="0"
   id="use2857"
   transform="translate(36.868622,18.434311)" />
<use
   xlink:href="#use2855"
   height="500.99399"
   width="414.772"
   y="0"
   x="0"
   id="use2859"
   transform="translate(-36.868622)" />
<use
   xlink:href="#use2707"
   height="500.99399"
   width="414.772"
   y="0"
   x="0"
   id="use2861"
   transform="translate(-18.434316,147.4745)" />
<use
   xlink:href="#use2709"
   height="500.99399"
   width="414.772"
   y="0"
   x="0"
   id="use2863"
   transform="translate(-18.434316,147.4745)" />
<use
   xlink:href="#use2711"
   height="500.99399"
   width="414.772"
   y="0"
   x="0"
   id="use2865"
   transform="translate(-18.434316,147.4745)" />
<use
   xlink:href="#use2713"
   height="500.99399"
   width="414.772"
   y="0"
   x="0"
   id="use2867"
   transform="translate(-18.434316,147.4745)" />
<use
   xlink:href="#use2715"
   height="500.99399"
   width="414.772"
   y="0"
   x="0"
   id="use2869"
   transform="translate(-18.434316,147.4745)" />
<use
   xlink:href="#use2869"
   height="500.99399"
   width="414.772"
   y="0"
   x="0"
   id="use2873"
   transform="translate(-110.60587,18.434302)" />
<use
   xlink:href="#use2851"
   height="500.99399"
   width="414.772"
   y="0"
   x="0"
   id="use2875"
   transform="translate(18.434312,18.434312)" />
<use
   xlink:href="#use2861"
   height="500.99399"
   width="414.772"
   y="0"
   x="0"
   id="use2877"
   transform="translate(36.868625,18.434302)" />
<use
   xlink:href="#use2863"
   height="500.99399"
   width="414.772"
   y="0"
   x="0"
   id="use2879"
   transform="translate(36.868625,18.434302)" />
<use
   xlink:href="#use2865"
   height="500.99399"
   width="414.772"
   y="0"
   x="0"
   id="use2881"
   transform="translate(36.868625,18.434302)" />
<use
   xlink:href="#use2867"
   height="500.99399"
   width="414.772"
   y="0"
   x="0"
   id="use2883"
   transform="translate(36.868625,18.434302)" />
<use
   xlink:href="#use2869"
   height="500.99399"
   width="414.772"
   y="0"
   x="0"
   id="use2885"
   transform="translate(36.868625,18.434302)" />
<g
   id="g3029">
<text
   style="font-size:18px;line-height:0%;font-family:'DejaVu Sans'"
   xml:space="preserve"
   id="text2889"
   y="250.49699"
   x="231.75656">1</text>


<text
   style="font-size:18px;line-height:0%;font-family:'DejaVu Sans'"
   xml:space="preserve"
   id="text2893"
   y="268.9313"
   x="231.284">2</text>


<text
   style="font-size:18px;line-height:0%;font-family:'DejaVu Sans'"
   xml:space="preserve"
   id="text2897"
   y="287.14056"
   x="231.09947">3</text>


<text
   style="font-size:18px;line-height:0%;font-family:'DejaVu Sans'"
   xml:space="preserve"
   id="text2901"
   y="305.79993"
   x="231.39651">4</text>


<text
   style="font-size:18px;line-height:0%;font-family:'DejaVu Sans'"
   xml:space="preserve"
   id="text2905"
   y="324.23422"
   x="231.05447">5</text>


<text
   style="font-size:18px;line-height:0%;font-family:'DejaVu Sans'"
   xml:space="preserve"
   id="text2909"
   y="342.66855"
   x="231.14449">6</text>


<text
   style="font-size:18px;line-height:0%;font-family:'DejaVu Sans'"
   xml:space="preserve"
   id="text2913"
   y="360.87781"
   x="231.04997">7</text>


<text
   style="font-size:18px;line-height:0%;font-family:'DejaVu Sans'"
   xml:space="preserve"
   id="text2917"
   y="379.53714"
   x="231.09947">8</text>


<text
   style="font-size:18px;line-height:0%;font-family:'DejaVu Sans'"
   xml:space="preserve"
   id="text2921"
   y="397.97147"
   x="231.09048">9</text>


<text
   style="font-size:18px;line-height:0%;font-family:'DejaVu Sans'"
   xml:space="preserve"
   id="text2925"
   y="416.40576"
   x="231.12648">0</text>


</g>
</g></g></g>
</svg>