<?xml version="1.0" encoding="UTF-8" standalone="no"?>
<!-- Created with Inkscape (http://www.inkscape.org/) -->

<svg
   xmlns:dc="http://purl.org/dc/elements/1.1/"
   xmlns:cc="http://creativecommons.org/ns#"
   xmlns:rdf="http://www.w3.org/1999/02/22-rdf-syntax-ns#"
   xmlns:svg="http://www.w3.org/2000/svg"
   xmlns="http://www.w3.org/2000/svg"
   xmlns:sodipodi="http://sodipodi.sourceforge.net/DTD/sodipodi-0.dtd"
   xmlns:inkscape="http://www.inkscape.org/namespaces/inkscape"
   width="816"
   height="1056"
   viewBox="0 0 215.9 279.40001"
   version="1.1"
   id="svg990"
   inkscape:version="0.92.2 2405546, 2018-03-11"
   sodipodi:docname="final-cover-thinkperl6-2.svg">
  <defs
     id="defs984" />
  <sodipodi:namedview
     id="base"
     pagecolor="#ffffff"
     bordercolor="#666666"
     borderopacity="1.0"
     inkscape:pageopacity="0.0"
     inkscape:pageshadow="2"
     inkscape:zoom="0.49497475"
     inkscape:cx="-152.4078"
     inkscape:cy="481.92081"
     inkscape:document-units="px"
     inkscape:current-layer="layer1"
     showgrid="false"
     inkscape:window-width="1596"
     inkscape:window-height="866"
     inkscape:window-x="2"
     inkscape:window-y="32"
     inkscape:window-maximized="0"
     units="px"
     inkscape:showpageshadow="false"
     inkscape:pagecheckerboard="true"
     inkscape:snap-page="false"
     showguides="false"
     inkscape:guide-bbox="true"
     inkscape:object-nodes="true"
     inkscape:snap-global="true"
     inkscape:object-paths="true"
     inkscape:snap-smooth-nodes="true"
     inkscape:snap-intersection-paths="true">
    <sodipodi:guide
       position="-4.2724579e-10,256.11668"
       orientation="0,1"
       id="guide2003"
       inkscape:locked="false" />
    <sodipodi:guide
       position="-4.2724579e-10,279.40001"
       orientation="0,1"
       id="guide2005"
       inkscape:locked="false" />
    <sodipodi:guide
       position="-4.2724579e-10,232.83335"
       orientation="0,1"
       id="guide2009"
       inkscape:locked="false" />
    <sodipodi:guide
       position="-4.2724579e-10,209.55002"
       orientation="0,1"
       id="guide2013"
       inkscape:locked="false" />
    <sodipodi:guide
       position="-4.2724579e-10,186.26668"
       orientation="0,1"
       id="guide2017"
       inkscape:locked="false" />
    <sodipodi:guide
       position="-4.2724579e-10,162.98335"
       orientation="0,1"
       id="guide2021"
       inkscape:locked="false" />
    <sodipodi:guide
       position="-4.2724579e-10,139.70003"
       orientation="0,1"
       id="guide2043"
       inkscape:locked="false" />
    <sodipodi:guide
       position="-4.2724579e-10,116.4167"
       orientation="0,1"
       id="guide2045"
       inkscape:locked="false" />
    <sodipodi:guide
       position="-4.2724579e-10,93.133374"
       orientation="0,1"
       id="guide2053"
       inkscape:locked="false" />
    <sodipodi:guide
       position="-4.2724579e-10,69.850033"
       orientation="0,1"
       id="guide2055"
       inkscape:locked="false" />
    <sodipodi:guide
       position="-4.2724579e-10,46.566692"
       orientation="0,1"
       id="guide2057"
       inkscape:locked="false" />
    <sodipodi:guide
       position="-4.2724579e-10,23.283367"
       orientation="0,1"
       id="guide2061"
       inkscape:locked="false" />
    <sodipodi:guide
       position="-4.2724579e-10,1.0517578e-05"
       orientation="0,1"
       id="guide2065"
       inkscape:locked="false" />
    <sodipodi:guide
       position="-4.2724578e-10,1.0517578e-05"
       orientation="1,0"
       id="guide2067"
       inkscape:locked="false" />
    <sodipodi:guide
       position="215.89999,1.0517578e-05"
       orientation="1,0"
       id="guide2069"
       inkscape:locked="false" />
    <sodipodi:guide
       position="-4.2724579e-10,250.29584"
       orientation="0,1"
       id="guide2071"
       inkscape:locked="false" />
    <sodipodi:guide
       position="-4.2724579e-10,244.47501"
       orientation="0,1"
       id="guide2079"
       inkscape:locked="false" />
    <sodipodi:guide
       position="-4.2724579e-10,238.65418"
       orientation="0,1"
       id="guide2081"
       inkscape:locked="false" />
    <sodipodi:guide
       position="-4.2724579e-10,4.233348"
       orientation="0,1"
       id="guide2093"
       inkscape:locked="false" />
    <sodipodi:guide
       position="-4.2724579e-10,5.8208724"
       orientation="0,1"
       id="guide2095"
       inkscape:locked="false" />
    <sodipodi:guide
       position="-169.78088,186.26668"
       orientation="0.48115339,-0.87663642"
       id="guide1141"
       inkscape:locked="false" />
    <sodipodi:guide
       position="-195.1888,172.32121"
       orientation="1,0"
       id="guide1143"
       inkscape:locked="false" />
    <sodipodi:guide
       position="-109.15795,94.39641"
       orientation="0.48112626,0.87665131"
       id="guide1145"
       inkscape:locked="false" />
    <sodipodi:guide
       position="-169.78088,186.26668"
       orientation="0.48115418,0.87663599"
       id="guide1147"
       inkscape:locked="false" />
    <sodipodi:guide
       position="-96.919098,186.26668"
       orientation="0.48115351,-0.87663636"
       id="guide1149"
       inkscape:locked="false" />
    <sodipodi:guide
       position="-96.919096,186.26668"
       orientation="0.4811536,0.87663631"
       id="guide1153"
       inkscape:locked="false" />
    <sodipodi:guide
       position="-71.511189,172.32121"
       orientation="1,0"
       id="guide1155"
       inkscape:locked="false" />
    <sodipodi:guide
       position="-195.1888,172.32121"
       orientation="0,1"
       id="guide1157"
       inkscape:locked="false" />
    <sodipodi:guide
       position="-179.16195,129.07237"
       orientation="1,0"
       id="guide1165"
       inkscape:locked="false" />
    <sodipodi:guide
       position="-179.16195,129.07237"
       orientation="-0.481181,0.87662127"
       id="guide1167"
       inkscape:locked="false" />
    <sodipodi:guide
       position="-179.16195,105.83162"
       orientation="0.48161398,0.87638346"
       id="guide1169"
       inkscape:locked="false" />
    <sodipodi:guide
       position="-136.8167,105.83338"
       orientation="0.48116406,-0.87663056"
       id="guide1171"
       inkscape:locked="false" />
    <sodipodi:guide
       position="-136.8167,105.83338"
       orientation="1,0"
       id="guide1173"
       inkscape:locked="false" />
    <sodipodi:guide
       position="-255.47397,146.03157"
       orientation="0.4810927,-0.87666973"
       id="guide1295"
       inkscape:locked="false" />
  </sodipodi:namedview>
  <metadata
     id="metadata987">
    <rdf:RDF>
      <cc:Work
         rdf:about="">
        <dc:format>image/svg+xml</dc:format>
        <dc:type
           rdf:resource="http://purl.org/dc/dcmitype/StillImage" />
        <dc:title />
      </cc:Work>
    </rdf:RDF>
  </metadata>
  <g
     inkscape:label="Layer 1"
     inkscape:groupmode="layer"
     id="layer1"
     transform="translate(0,-17.599975)">
    <rect
       style="opacity:1;fill:#ffffff;fill-opacity:1;stroke:none;stroke-width:0.317;stroke-linecap:round;stroke-linejoin:miter;stroke-miterlimit:4;stroke-dasharray:none;stroke-dashoffset:0;stroke-opacity:1"
       id="rect3808"
       width="215.89999"
       height="279.39999"
       x="-4.2724579e-10"
       y="17.599976"
       inkscape:export-xdpi="96"
       inkscape:export-ydpi="96" />
    <g
       id="g996">
      <g
         id="g978">
        <g
           style="opacity:1;fill:#6699cc;fill-opacity:1"
           id="g3818"
           transform="translate(-258.53568)">
          <path
             id="path3810"
             d="m 279.63215,191.386 c -0.1885,0.15522 -0.36593,0.32057 -0.53175,0.49506 -1.16085,1.2214 -1.75812,2.88599 -1.6707,4.59714 0.0986,1.83556 0.97356,3.54026 2.38435,4.69945 0.0587,0.051 0.11742,0.10213 0.17829,0.1509 0.18783,0.15055 0.38605,0.29071 0.59376,0.41909 0.19672,-0.14466 0.42948,-0.41052 0.60461,-0.57567 0.09,-0.0849 0.16142,-0.17347 0.21963,-0.26459 1.09353,-1.38738 1.58892,-3.17147 1.34668,-4.93716 -0.23735,-1.69688 -1.13875,-3.21805 -2.5094,-4.1982 -0.1958,-0.14004 -0.40104,-0.2692 -0.61547,-0.38602 z m 11.98325,3.06028 c -2.49863,0.0635 -4.8707,1.18211 -6.57376,3.06855 -1.88054,2.09411 -2.7519,4.90993 -2.40347,7.691 0.84849,-2.09082 1.92187,-4.07345 4.95422,-5.23689 -1.91676,1.39365 -2.81887,3.26105 -2.75901,5.51853 2.10814,-0.24009 4.09191,-1.21089 5.58261,-2.82567 1.98356,-2.16037 1.05394,-4.69824 2.27635,-8.17728 -0.36052,-0.0349 -0.72,-0.0473 -1.07694,-0.0382 z m -21.06797,3.17758 c -1.22988,-0.0238 -2.47035,0.19339 -3.64784,0.64854 2.13256,2.71523 1.84564,5.21097 4.27055,6.71019 1.81533,1.11564 3.96463,1.59651 6.07094,1.36064 -0.4386,-2.1575 -1.7779,-3.69784 -3.98115,-4.49482 3.23045,0.30591 4.75799,1.91328 6.05854,3.73827 -0.28825,-2.76922 -1.85749,-5.23337 -4.23901,-6.67091 -1.38728,-0.83244 -2.95075,-1.26135 -4.53203,-1.29191 z m 10.53373,5.99344 c -0.0591,0.11654 -0.11887,0.22985 -0.17932,0.33796 2.20236,18.34305 2.57625,36.95396 -0.21187,55.2111 -1.9966,13.07482 -5.71659,25.95897 -11.51713,37.83334 h 3.65869 c 5.19536,-11.99052 8.36028,-24.72999 9.88467,-37.5238 2.22741,-18.68818 1.20941,-37.47372 -1.63504,-55.8586 z m -11.60188,4.19922 c -1.3139,0.002 -2.63602,0.22111 -3.9088,0.65526 2.52841,3.41241 2.03547,6.44943 4.95783,8.42481 2.18653,1.46961 4.8241,2.19887 7.45123,2.03967 -0.40858,-2.6961 -1.98661,-4.67765 -4.68085,-5.77433 3.99781,0.54588 5.80427,2.62094 7.30549,4.96714 -0.18601,-3.45771 -2.00477,-6.60201 -4.89634,-8.49509 -1.87252,-1.2189 -4.03873,-1.82034 -6.22856,-1.81746 z m 24.70134,1.08262 c -2.48156,0.0672 -4.86314,1.1241 -6.65748,2.92437 -2.11455,2.13279 -3.2019,5.08238 -3.00602,8.06359 1.03013,-2.17235 2.2869,-4.22385 5.57383,-5.29011 -2.11697,1.37908 -3.18382,3.31736 -3.26286,5.72885 2.25109,-0.122 4.41618,-1.03183 6.09782,-2.67167 2.2378,-2.19397 1.40376,-4.9771 2.89492,-8.65426 -0.38122,-0.0576 -0.76273,-0.0907 -1.14257,-0.10077 -0.16618,-0.004 -0.33221,-0.004 -0.49764,0 z m -25.25634,11.12801 c -1.19258,0.007 -2.39273,0.17576 -3.56361,0.50488 2.55697,3.78321 1.8333,6.99973 4.86999,9.30485 2.27131,1.71468 5.07849,2.68256 7.93388,2.69183 -0.25662,-2.93842 -1.84143,-5.17946 -4.69429,-6.52363 4.30113,0.83219 6.12608,3.18849 7.5923,5.83117 0.0348,-3.75827 -1.74236,-7.27677 -4.76973,-9.4878 -2.15775,-1.56728 -4.74488,-2.33622 -7.36854,-2.3213 z m 26.93996,4.28656 c -2.4298,0.0531 -4.79326,1.01126 -6.66523,2.67477 -2.37717,2.12392 -3.73165,5.1737 -3.75171,8.34574 1.2511,-2.22317 2.72566,-4.31078 6.26939,-5.21208 -2.33246,1.31887 -3.59772,3.29918 -3.86592,5.8539 2.38381,0.0437 4.73732,-0.75698 6.63422,-2.38383 2.52426,-2.1768 1.84566,-5.21444 3.66644,-9.05629 -0.59806,-0.13112 -1.20059,-0.20382 -1.8004,-0.22066 -0.16245,-0.005 -0.32481,-0.005 -0.48679,-0.002 z m -28.27218,8.69456 c -1.03192,-0.005 -2.07131,0.10062 -3.09749,0.31471 2.49132,4.17066 1.46087,7.517 4.53823,10.20764 2.30099,2.00115 5.23872,3.27596 8.30802,3.52899 -0.0253,-3.16957 -1.55574,-5.69535 -4.52066,-7.34478 4.56379,1.21543 6.34095,3.88269 7.69566,6.84713 0.35465,-4.03955 -1.28925,-7.95705 -4.38733,-10.54044 -2.41095,-1.99982 -5.44066,-2.99958 -8.53643,-3.01325 z m 28.66543,7.65534 c -2.30585,0.0446 -4.57738,0.86556 -6.47557,2.31872 -2.67184,2.05684 -4.35677,5.16563 -4.66742,8.51525 1.5179,-2.23621 3.25002,-4.31961 7.05074,-4.97489 -2.56438,1.20333 -4.0661,3.19245 -4.58267,5.87561 2.5028,0.26545 5.05056,-0.36876 7.19026,-1.93632 2.84724,-2.0977 2.39692,-5.40142 4.61832,-9.3648 -1.03031,-0.31392 -2.08554,-0.45386 -3.13366,-0.43357 z m -31.91123,5.9154 c -0.55763,0.0108 -1.11679,0.0504 -1.67483,0.11834 2.07673,4.12273 1.11859,7.32623 3.12281,10.19318 0.22037,0.3134 0.47664,0.62389 0.77618,0.93379 2.26115,2.32702 5.27821,3.99465 8.53694,4.58887 0.13652,-1.50977 -0.0692,-2.9196 -0.60978,-4.19303 -0.66504,-1.57052 -1.83369,-2.93111 -3.49849,-4.04885 2.93098,1.05546 4.68223,2.59758 5.86734,4.41059 0.74059,1.13146 1.25465,2.36262 1.69343,3.6344 0.20824,-1.11456 0.26791,-2.23974 0.18552,-3.34708 -0.2331,-3.13652 -1.59071,-6.08043 -3.86643,-8.30957 -2.80324,-2.7316 -6.62929,-4.05638 -10.53269,-3.98064 z m 30.94385,11.31508 c -2.20657,-0.0186 -4.41732,0.63951 -6.35569,1.87172 -0.26756,0.17109 -0.52742,0.35167 -0.77979,0.54105 -2.58222,1.94369 -4.37621,4.81098 -5.01985,8.00984 1.84613,-2.19692 3.88937,-4.22794 7.94577,-4.5408 -2.8181,1.02446 -4.60613,2.97907 -5.45807,5.76915 2.59634,0.56043 5.34585,0.17025 7.77007,-1.2826 2.36783,-1.42784 2.95058,-3.80961 4.146,-6.52209 0.43148,-0.97416 0.94549,-1.99608 1.65933,-3.06028 -1.26118,-0.52009 -2.58383,-0.77486 -3.90777,-0.78599 z m -35.75854,2.53421 c 1.98946,4.96741 0.10701,8.33053 2.95434,11.98686 2.12691,2.7166 5.11662,4.87256 8.49147,5.92884 0.756,-3.52592 -0.39421,-6.70171 -3.37499,-9.18703 4.88354,2.37664 6.27496,5.76751 7.06056,9.43146 1.40722,-4.45189 0.4297,-9.23885 -2.5306,-12.77596 -3.07811,-3.65851 -7.78732,-5.45628 -12.60078,-5.38417 z m -0.99581,14.52986 v 14.87712 c 1.62961,1.86116 3.6287,3.44612 5.88492,4.5434 1.34179,-3.55962 0.5878,-7.05384 -2.20555,-10.06811 4.81039,3.18455 5.78381,6.93844 6.03787,10.90888 2.17643,-4.45841 1.82748,-9.63546 -0.82682,-13.74231 -2.07611,-3.19412 -5.27652,-5.37848 -8.89042,-6.51898 z m 33.11633,0.99477 c -1.86506,0.01 -3.74872,0.46746 -5.49476,1.32602 -3.38433,1.67509 -5.96904,4.69365 -7.18354,8.27186 2.22212,-2.0588 4.6242,-3.93986 8.89972,-3.77033 -3.08035,0.73595 -5.20356,2.56851 -6.48023,5.38831 2.62507,0.93183 5.54325,0.88281 8.27702,-0.34933 3.63718,-1.65129 4.0149,-5.48366 7.36492,-9.50072 -1.67177,-0.93628 -3.51807,-1.37536 -5.38313,-1.36581 z m -33.11633,18.1994 v 2.84737 h 1.69654 c -0.46453,-1.02105 -1.0369,-1.96964 -1.69654,-2.84737 z"
             style="fill:#6699cc;fill-opacity:1;stroke:none;stroke-width:0.26458332px;stroke-linecap:butt;stroke-linejoin:miter;stroke-opacity:1"
             inkscape:connector-curvature="0" />
          <path
             id="path3812"
             d="m 354.07618,252.05258 c -1.28518,3.20446 -3.59034,4.20367 -3.67626,7.05332 -0.0585,2.12994 0.59983,4.23195 1.85725,5.93814 1.64915,-1.45859 2.31363,-3.3887 1.90221,-5.69526 1.35031,2.95061 0.72195,5.07704 -0.20825,7.11584 2.25409,-1.63425 3.60347,-4.22506 3.65766,-7.00629 0.0273,-1.61765 -0.38304,-3.18609 -1.14722,-4.57078 -0.59436,-1.07699 -1.40247,-2.04282 -2.38539,-2.83497 z m -9.49761,3.9486 c -1.69102,3.89587 -4.56772,4.98741 -4.81727,8.50594 -0.17946,2.62839 0.50762,5.27737 1.95905,7.47293 2.1306,-1.70189 3.05767,-4.05904 2.6603,-6.94066 1.52616,3.73515 0.63272,6.33712 -0.64854,8.81031 2.90146,-1.88994 4.71507,-5.03766 4.90875,-8.48837 0.11934,-2.2311 -0.44306,-4.40746 -1.54048,-6.30246 -0.65844,-1.137 -1.50944,-2.17251 -2.52181,-3.05769 z m -10.54922,5.84874 c -1.99788,4.10601 -5.1455,5.08734 -5.62343,8.86974 -0.3493,2.82436 0.2159,5.73958 1.63556,8.21707 2.41643,-1.69146 3.56498,-4.18447 3.30264,-7.3272 1.42986,4.14098 0.30184,6.89924 -1.25367,9.49037 3.27215,-1.84899 5.43056,-5.1471 5.83168,-8.87439 0.27844,-2.6523 -0.34904,-5.27747 -1.6738,-7.54218 -0.60216,-1.02939 -1.34852,-1.98397 -2.21898,-2.83341 z m 27.64378,0.93172 c -16.00995,12.61104 -33.4006,23.67388 -52.33995,31.22446 0.75198,1.03113 0.25474,1.79612 -0.7307,2.50423 0.12575,-0.0535 0.25269,-0.10481 0.37827,-0.15865 19.36098,-8.29934 36.79613,-20.17863 52.69238,-33.57004 z m 0.0537,4.39612 c -2.07489,0.0177 -4.11051,0.70227 -5.78621,1.97145 2.23495,-0.3106 4.48875,-0.37212 7.01249,1.67225 -2.16531,-0.96313 -4.23369,-0.81058 -6.15879,0.37001 1.26198,1.70566 3.09464,2.9379 5.23843,3.42149 2.86271,0.63763 4.59603,-1.4363 8.22017,-2.11718 -0.15008,-0.32964 -0.31906,-0.64729 -0.50539,-0.95188 -1.30433,-2.13211 -3.45911,-3.62672 -5.94435,-4.1584 -0.68845,-0.14539 -1.38474,-0.21366 -2.07635,-0.20774 z m -39.20794,0.31781 c -2.36623,4.24287 -5.77969,5.02316 -6.57118,9.03355 -0.13431,0.69014 -0.21607,1.39042 -0.24959,2.09342 0.46832,0.39201 0.90647,0.82271 1.30483,1.29346 -0.43706,0.23437 -0.85407,0.49543 -1.25781,0.77463 0.15398,1.65392 0.58576,3.28482 1.3007,4.79816 2.73229,-1.60668 4.15401,-4.19472 4.1,-7.58714 1.22931,4.56007 -0.19159,7.43236 -2.08152,10.08774 3.67568,-1.71257 6.24622,-5.095 6.93446,-9.06972 0.52642,-3.08784 -0.12278,-6.21134 -1.65881,-8.89919 -0.51202,-0.89595 -1.12259,-1.74326 -1.82108,-2.52491 z m 27.37817,8.85114 c -2.02573,0.0204 -4.02377,0.62901 -5.73143,1.77043 2.39638,-0.19406 4.80167,-0.13113 7.36854,2.1823 -2.2528,-1.1438 -4.46495,-1.09905 -6.59288,0.0382 1.2312,1.8885 3.1015,3.30908 5.36247,3.94548 3.01893,0.84101 5.0125,-1.27336 8.9426,-1.82055 -0.14072,-0.35896 -0.30298,-0.70576 -0.48421,-1.03973 -1.26864,-2.33776 -3.49022,-4.03669 -6.11022,-4.73408 -0.9076,-0.23902 -1.83408,-0.35137 -2.75487,-0.34209 z m -13.02452,8.81651 c -1.95377,-0.003 -3.89611,0.50271 -5.6193,1.48312 2.55087,-0.0281 5.09621,0.20529 7.64863,2.82361 -2.30838,-1.3606 -4.65613,-1.46627 -7.00268,-0.42117 1.15407,2.08627 3.02424,3.72386 5.38159,4.55319 3.14729,1.09768 5.43888,-1.0088 9.67641,-1.35286 -0.18549,-0.58352 -0.4242,-1.14129 -0.70952,-1.66916 -1.23637,-2.28748 -3.35604,-4.01555 -5.89111,-4.85759 -1.13548,-0.37377 -2.31178,-0.55771 -3.48402,-0.55914 z m -14.95206,8.15972 c -1.65536,0.0388 -3.30314,0.41384 -4.83123,1.11673 2.33433,0.1701 4.64924,0.53996 6.83059,2.56003 h 6.86624 c -1.08829,-1.18547 -2.45042,-2.13625 -3.9889,-2.77553 -1.55859,-0.64273 -3.22134,-0.94007 -4.8767,-0.90123 z m -1.52084,3.21117 c -0.90723,-0.008 -1.83085,0.15036 -2.76882,0.46559 h 5.28132 c -0.82202,-0.30213 -1.65995,-0.45813 -2.5125,-0.46559 z"
             style="fill:#6699cc;fill-opacity:1;stroke:none;stroke-width:0.26458332px;stroke-linecap:butt;stroke-linejoin:miter;stroke-opacity:1"
             inkscape:connector-curvature="0" />
          <path
             id="path3814"
             d="m 309.4417,226.47378 c 0.48923,3.41774 -1.00677,5.43598 0.34365,7.9468 1.0143,1.87384 2.63493,3.36481 4.57698,4.2137 0.69891,-2.08775 0.30914,-4.09153 -1.20044,-5.88336 2.64469,1.88015 3.16426,4.03604 3.37809,6.2668 1.13498,-2.54235 1.00779,-5.46097 -0.3359,-7.89668 -0.78519,-1.41456 -1.92472,-2.56771 -3.27887,-3.3848 -1.05323,-0.63552 -2.23621,-1.06789 -3.48351,-1.26246 z m 11.94397,5.49321 c -6.89145,17.25387 -15.4203,33.96732 -26.43973,48.91536 -0.56459,1.04806 -1.11423,2.10534 -1.73839,3.10316 -0.64935,0.9521 -1.50991,1.75794 -2.50114,2.40297 -2.96359,3.68321 -6.10639,7.23315 -9.42216,10.61122 h 3.40909 c 2.75691,-3.09851 5.37378,-6.31008 7.84448,-9.61335 12.61742,-16.86798 21.77699,-35.87392 28.84785,-55.41936 z m 6.91689,2.46238 c -0.92941,0.0134 -1.86358,0.16609 -2.77037,0.4594 -2.67565,0.87328 -4.8385,2.87641 -5.92729,5.4591 1.78023,-1.38646 3.70133,-2.56688 6.90914,-2.05827 -2.35678,0.24856 -4.07162,1.41482 -5.14852,3.39979 1.94575,0.84615 4.14879,0.99726 6.24716,0.34416 2.798,-0.87915 3.26195,-3.54157 6.0601,-5.9433 -0.29479,-0.21044 -0.59998,-0.40144 -0.91364,-0.57206 -1.37227,-0.74644 -2.90755,-1.11115 -4.45658,-1.08882 z m -25.11164,0.21291 c 0.48347,4.21944 -1.46202,6.6032 0.0811,9.77511 1.15878,2.36598 3.0785,4.31647 5.43326,5.49217 0.99421,-2.53919 0.6186,-5.04428 -1.16634,-7.34115 3.18927,2.47165 3.71618,5.17207 3.84318,7.95455 1.56776,-3.08747 1.56485,-6.72036 0.007,-9.8056 -1.0122,-1.99186 -2.58762,-3.59568 -4.48551,-4.68809 -1.13874,-0.65544 -2.39362,-1.12659 -3.71296,-1.38699 z m -4.97024,10.72079 c -0.20287,0.62707 -0.39997,1.25607 -0.60668,1.87947 -0.2276,0.75361 -0.57086,1.43182 -1.00097,2.03812 -0.44997,2.17347 -1.00568,3.96536 -0.0687,6.19445 0.3235,0.76399 0.7202,1.49432 1.17822,2.18333 0.77835,0.18263 1.53959,0.44305 2.27118,0.76946 -0.26902,0.36521 -0.51478,0.7426 -0.74466,1.12862 0.83204,0.86054 1.77923,1.61122 2.8205,2.21692 1.24697,-2.67306 0.99499,-5.40642 -0.80357,-7.99693 3.30879,2.87126 3.71076,5.82423 3.65921,8.84597 1.90927,-3.23735 2.12966,-7.17293 0.6134,-10.60142 -1.08502,-2.43618 -2.94125,-4.39583 -5.22087,-5.69474 -0.66562,-0.37927 -1.36779,-0.7012 -2.09703,-0.96325 z m 24.78557,2.8081 c -0.82826,0.0134 -1.66141,0.12972 -2.47944,0.35036 -2.89765,0.78977 -5.31429,2.80054 -6.63525,5.48029 1.97829,-1.36625 4.09272,-2.51477 7.47241,-1.79472 -2.52288,0.13584 -4.4159,1.28113 -5.69009,3.33002 2.0105,1.01989 4.34038,1.31468 6.61665,0.73536 3.03497,-0.78114 3.70424,-3.60876 6.83421,-6.04769 -0.30135,-0.24051 -0.61555,-0.45975 -0.93948,-0.65836 -1.55895,-0.95579 -3.35685,-1.42478 -5.17901,-1.39526 z m -33.17265,7.45484 c 0.0178,1.19602 -0.12502,2.24109 -0.3297,3.19618 1.25833,-0.68261 2.62938,-1.15135 4.069,-1.34823 -0.29237,-0.20079 -0.59149,-0.39209 -0.89917,-0.57154 -0.89139,-0.51991 -1.84439,-0.94873 -2.84013,-1.27641 z m 26.53119,6.64507 c -0.65562,0.0135 -1.31527,0.0871 -1.96939,0.22169 -3.12065,0.65078 -5.81837,2.61457 -7.42177,5.35161 2.19508,-1.29977 4.51608,-2.37055 8.03569,-1.37924 -2.6794,-0.0241 -4.76544,1.05841 -6.27507,3.13676 2.04259,1.22975 4.48085,1.71308 6.93705,1.25263 3.27446,-0.62304 4.20563,-3.59271 7.7034,-6.00945 -0.45238,-0.41258 -0.93746,-0.7769 -1.44849,-1.0914 -1.66085,-1.02212 -3.59456,-1.52307 -5.56142,-1.4826 z m -18.47536,0.0124 c -0.43496,0.9979 -0.84132,2.01032 -1.28932,2.9993 -0.30526,0.71147 -0.70885,1.34365 -1.18701,1.90118 1.83817,2.67417 1.92704,5.28104 1.67587,7.91838 2.32691,-3.32103 2.86203,-7.53599 1.47071,-11.32231 -0.19151,-0.51701 -0.4172,-1.01547 -0.67025,-1.49655 z m -2.98896,5.44463 c -1.243,1.1922 -2.86753,1.96161 -4.5961,2.33112 1.002,1.51281 2.28289,2.84507 3.78633,3.88659 1.13349,-1.99993 1.40718,-4.10291 0.80977,-6.21771 z m 13.33459,8.81031 c -0.44256,0.007 -0.88724,0.0386 -1.33171,0.0966 -3.34229,0.44535 -6.3559,2.29551 -8.29975,5.04104 2.43265,-1.17767 4.97464,-2.11628 8.59379,-0.78342 -2.82248,-0.24007 -5.11761,0.73187 -6.90655,2.79723 2.03476,1.4813 4.55809,2.20594 7.19491,1.91823 3.51463,-0.39298 4.77667,-3.47949 8.68216,-5.80118 -0.73532,-0.78701 -1.57917,-1.43551 -2.49701,-1.942 -1.64064,-0.90533 -3.51809,-1.35548 -5.43584,-1.32654 z m -10.02781,14.19708 c -0.14296,0 -0.28601,0.005 -0.42944,0.0109 -0.31727,0.0143 -0.63243,0.0406 -0.94568,0.0785 -3.2081,0.39219 -6.19561,1.97866 -8.35246,4.42714 2.69726,-0.97954 5.48252,-1.71693 9.1519,0.0403 -2.6565,-0.46948 -4.96608,0.13311 -6.95617,1.70738 h 13.24674 c 0.10745,-0.0806 0.20964,-0.1606 0.31988,-0.24133 0.86075,-0.62788 1.81695,-1.25584 2.96726,-1.82054 -0.83217,-1.08101 -1.85055,-1.96287 -2.99155,-2.63449 -1.78282,-1.04939 -3.8662,-1.58562 -6.01048,-1.56784 z"
             style="fill:#6699cc;fill-opacity:1;stroke:none;stroke-width:0.26458332px;stroke-linecap:butt;stroke-linejoin:miter;stroke-opacity:1"
             inkscape:connector-curvature="0" />
          <path
             id="path3816"
             d="m 263.73131,200.7875 c -1.38747,-0.0164 -2.78273,0.28289 -4.07778,0.88831 -0.38884,0.18303 -0.76095,0.3936 -1.11777,0.62374 v 2.89853 c 0.73233,-0.19802 1.55727,-0.30114 2.51406,-0.26975 -0.97105,0.22688 -1.80768,0.60289 -2.51406,1.11672 v 3.25304 c 1.37417,0.0572 2.7648,-0.19905 4.06901,-0.79117 2.66723,-1.21968 2.79727,-3.91922 5.27564,-6.64972 -0.31862,-0.17224 -0.64529,-0.32338 -0.97772,-0.45372 -1.01801,-0.39923 -2.09223,-0.60323 -3.17138,-0.61598 z m -3.7021,14.28439 c -0.49863,0.008 -0.99765,0.0554 -1.49345,0.13901 v 8.28167 c 0.18607,-0.06 0.37152,-0.12422 0.55553,-0.19637 2.91453,-1.15183 3.22763,-4.04007 6.03064,-6.84868 -0.32887,-0.20125 -0.66783,-0.38003 -1.0139,-0.53692 -0.15155,-0.0683 -0.3044,-0.1326 -0.45837,-0.19327 -1.1563,-0.45124 -2.38598,-0.66487 -3.62045,-0.64544 z m -1.49345,15.26574 v 4.43435 c 0.71869,-0.99084 1.5297,-2.0629 2.69545,-3.1042 -0.5001,-0.35325 -1.02692,-0.65416 -1.57303,-0.90279 -0.14774,-0.0677 -0.29711,-0.131 -0.44752,-0.1912 l -5.2e-4,5.3e-4 c -0.22195,-0.088 -0.44726,-0.1653 -0.67438,-0.23668 z"
             style="fill:#6699cc;fill-opacity:1;stroke:none;stroke-width:0.26458332px;stroke-linecap:butt;stroke-linejoin:miter;stroke-opacity:1"
             inkscape:connector-curvature="0" />
        </g>
        <rect
           inkscape:export-ydpi="96"
           inkscape:export-xdpi="96"
           y="17.599976"
           x="-4.2724579e-10"
           height="279.39999"
           width="215.89999"
           id="rect3820"
           style="opacity:0.5;fill:#ffffff;fill-opacity:1;stroke:none;stroke-width:0.317;stroke-linecap:round;stroke-linejoin:miter;stroke-miterlimit:4;stroke-dasharray:none;stroke-dashoffset:0;stroke-opacity:1" />
        <rect
           inkscape:export-ydpi="96"
           inkscape:export-xdpi="96"
           y="292.76663"
           x="-4.2724579e-10"
           height="4.2333331"
           width="215.89999"
           id="rect1075"
           style="opacity:1;fill:#6699cc;fill-opacity:1;stroke:none;stroke-width:0.03902001;stroke-linecap:round;stroke-linejoin:miter;stroke-miterlimit:4;stroke-dasharray:none;stroke-dashoffset:0;stroke-opacity:1" />
      </g>
      <g
         transform="translate(0.86862222)"
         id="g1967">
        <text
           xml:space="preserve"
           style="font-style:normal;font-weight:normal;font-size:7.05555534px;line-height:1.25;font-family:sans-serif;letter-spacing:0px;word-spacing:0px;fill:#101f24;fill-opacity:1;stroke:none;stroke-width:0.13996068"
           x="151.7784"
           y="284.75174"
           id="text3826"><tspan
             id="tspan3822"
             sodipodi:role="line"
             x="151.7784"
             y="284.75174"
             style="font-style:normal;font-variant:normal;font-weight:bold;font-stretch:normal;font-size:4.23333311px;line-height:0px;font-family:'Bitstream Vera Sans';-inkscape-font-specification:'Bitstream Vera Sans Bold';fill:#101f24;fill-opacity:1;stroke-width:0.13996068">Laurent Rosenfeld<tspan
   id="tspan2115"
   style="font-style:normal;font-variant:normal;font-weight:normal;font-stretch:normal;font-family:'Bitstream Vera Sans';-inkscape-font-specification:'Bitstream Vera Sans'">,</tspan> </tspan><tspan
             id="tspan3824"
             sodipodi:role="line"
             x="151.7784"
             y="293.5712"
             style="font-style:normal;font-variant:normal;font-weight:normal;font-stretch:normal;font-size:4.93888855px;line-height:0px;font-family:'Liberation Sans';-inkscape-font-specification:'Liberation Sans';fill:#101f24;fill-opacity:1;stroke-width:0.13996068" /></text>
        <text
           id="text3832"
           y="290.52325"
           x="151.97372"
           style="font-style:normal;font-weight:normal;font-size:7.05555534px;line-height:1.25;font-family:sans-serif;letter-spacing:0px;word-spacing:0px;fill:#101f24;fill-opacity:1;stroke:none;stroke-width:0.13996068"
           xml:space="preserve"><tspan
             style="font-style:normal;font-variant:normal;font-weight:normal;font-stretch:normal;font-size:4.23333311px;line-height:0px;font-family:'Bitstream Vera Sans';-inkscape-font-specification:'Bitstream Vera Sans';fill:#101f24;fill-opacity:1;stroke-width:0.13996068"
             y="290.52325"
             x="151.97372"
             sodipodi:role="line"
             id="tspan3830">con <tspan
   id="tspan3828"
   style="font-style:normal;font-variant:normal;font-weight:bold;font-stretch:normal;font-size:4.23333311px;font-family:'Bitstream Vera Sans';-inkscape-font-specification:'Bitstream Vera Sans Bold';stroke-width:0.13996068">Allen B. Downey</tspan></tspan></text>
      </g>
    </g>
    <g
       id="g947">
      <g
         style="fill:#101f24;fill-opacity:1"
         inkscape:export-ydpi="96"
         inkscape:export-xdpi="96"
         transform="matrix(0.35277777,0,0,-0.35277777,8.3369149,128.47848)"
         id="g3866">
        <text
           xml:space="preserve"
           style="font-style:normal;font-variant:normal;font-weight:normal;font-stretch:normal;font-size:18px;line-height:1.25;font-family:'Liberation Sans';-inkscape-font-specification:'Liberation Sans';letter-spacing:0px;word-spacing:0px;fill:#101f24;fill-opacity:1;stroke:none;stroke-width:0.92655247"
           x="50.947388"
           y="-149.62007"
           id="text3860"
           transform="scale(1,-1)"><tspan
             sodipodi:role="line"
             x="50.947388"
             y="-149.62007"
             style="font-style:italic;font-variant:normal;font-weight:normal;font-stretch:normal;font-size:18px;font-family:'Liberation Sans';-inkscape-font-specification:'Liberation Sans Italic';fill:#101f24;fill-opacity:1;stroke-width:0.92655247"
             id="tspan3858">Cómo pensar como un científico de la computación</tspan></text>
        <text
           transform="scale(1,-1)"
           id="text3864"
           y="-85.356293"
           x="12.111329"
           style="font-style:normal;font-variant:normal;font-weight:normal;font-stretch:normal;font-size:18px;line-height:1.25;font-family:'Liberation Sans';-inkscape-font-specification:'Liberation Sans';letter-spacing:0px;word-spacing:0px;fill:#101f24;fill-opacity:1;stroke:none;stroke-width:0.92655247"
           xml:space="preserve"><tspan
             id="tspan3862"
             style="font-style:normal;font-variant:normal;font-weight:normal;font-stretch:normal;font-size:18px;font-family:'Liberation Sans';-inkscape-font-specification:'Liberation Sans';fill:#101f24;fill-opacity:1;stroke-width:0.92655247"
             y="-69.430511"
             x="12.111329"
             sodipodi:role="line" /></text>
      </g>
      <g
         id="g936">
        <text
           xml:space="preserve"
           style="font-style:normal;font-weight:normal;font-size:13.07468414px;line-height:1.25;font-family:sans-serif;letter-spacing:0px;word-spacing:0px;fill:#101f24;fill-opacity:1;stroke:none;stroke-width:0.32686713"
           x="17.530714"
           y="61.713734"
           id="text3856"
           inkscape:export-xdpi="96"
           inkscape:export-ydpi="96"><tspan
             sodipodi:role="line"
             x="17.530714"
             y="61.713734"
             style="font-style:normal;font-variant:normal;font-weight:bold;font-stretch:normal;font-size:19.7555542px;font-family:'Bitstream Vera Sans';-inkscape-font-specification:'Bitstream Vera Sans Bold';fill:#101f24;fill-opacity:1;stroke-width:0.32686713"
             id="tspan3854">Piensa en Perl 6</tspan></text>
        <rect
           style="opacity:1;fill:#101f24;fill-opacity:1;stroke:none;stroke-width:0.31364298;stroke-linecap:round;stroke-linejoin:miter;stroke-miterlimit:4;stroke-dasharray:none;stroke-dashoffset:0;stroke-opacity:1"
           id="rect3868"
           width="185.20833"
           height="0.83714259"
           x="15.345833"
           y="64.86702"
           ry="0.41857129" />
      </g>
    </g>
    <g
       id="g1177"
       transform="translate(1.947815e-6)">
      <g
         style="fill:#b3cce6;fill-opacity:1"
         id="g1156">
        <path
           inkscape:connector-curvature="0"
           style="fill:#b3cce6;fill-opacity:1;stroke:none;stroke-width:0.33769253;stroke-miterlimit:4;stroke-dasharray:none;stroke-opacity:1"
           d="m 83.64814,144.34669 v 26.06318 l 23.60738,12.95812 v -26.06314 z"
           id="path1102" />
        <path
           inkscape:connector-curvature="0"
           style="fill:#b3cce6;fill-opacity:1;stroke:none;stroke-width:0.33769253;stroke-miterlimit:4;stroke-dasharray:none;stroke-opacity:1"
           d="m 132.2519,144.34669 -23.60739,12.95816 v 26.06314 l 23.60739,-12.95812 z"
           id="path1104" />
        <path
           inkscape:connector-curvature="0"
           style="fill:#b3cce6;fill-opacity:1;stroke:none;stroke-width:0.33769253;stroke-miterlimit:4;stroke-dasharray:none;stroke-opacity:1"
           d="m 107.95004,130.39298 -23.6542,12.98405 23.54273,12.8456 23.51432,-12.98405 z"
           id="path1106" />
      </g>
      <g
         transform="translate(0,-0.11672)"
         style="fill:#6699cc;fill-opacity:1"
         id="g1151">
        <path
           style="fill:#6699cc;fill-opacity:1;stroke:none;stroke-width:0.29986033;stroke-miterlimit:4;stroke-dasharray:none;stroke-opacity:1"
           d="m 71.519106,110.85002 -9.914404,5.44162 6.782937,3.72312 14.257306,-3.05853 z m 72.861784,0 -11.12584,6.10621 14.2573,3.05853 6.78294,-3.72312 z m -83.842867,6.02657 -14.426833,7.9189 20.743094,-4.45113 z m 94.823947,0 -6.31817,3.46777 20.745,4.45113 z m -71.353198,0.82749 -0.360003,0.0779 v 10.6099 l 12.798235,7.02438 c 0.160146,-0.0881 0.319863,-0.17653 0.480008,-0.26443 v -10.35632 z m 47.884348,0 -12.92014,7.09141 v 10.35632 c 0.16015,0.0881 0.31985,0.17654 0.48001,0.26443 l 12.79823,-7.02438 V 117.7802 Z m -49.248175,0.29159 -12.89539,2.76703 12.89539,7.07685 z m 50.610105,0 v 9.84388 l 12.89539,-7.07685 z m -65.03884,3.09654 -22.10502,4.74272 v 26.85335 l 9.432494,5.17728 27.101261,-14.87448 v -13.97987 z m 79.46567,0 -14.42683,7.919 v 13.97801 l 27.10126,14.87634 9.43249,-5.17728 v -26.85335 z m -15.43066,8.46946 -11.73155,6.43943 c 3.82661,2.1003 7.65362,4.19931 11.48013,6.29998 l 0.25142,0.13768 z m -48.602451,0 v 12.877 c 3.910018,-2.14638 7.819558,-4.29323 11.729655,-6.43943 z m -1.003824,14.72048 -25.922204,14.22797 10.32393,5.66803 c 0.002,-9.2e-4 0.0039,-8.3e-4 0.0059,0 l 15.592558,-8.55809 z m 50.610105,0 v 11.33606 c 5.19867,2.85344 10.39762,5.70641 15.59637,8.55994 l 10.32583,-5.66803 z m -50.610105,12.50586 -20.506908,11.25632 v 13.41133 l 20.506908,-11.32335 z m 50.610105,0 v 13.06717 l 20.50881,11.50628 v -13.31713 z m -49.606281,14.53042 v 25.7668 l 20.834521,-11.43564 v -2.89377 c -6.945557,-3.81157 -13.889517,-7.6249 -20.834521,-11.43739 z m 48.602451,0 c -6.9448,3.81231 -13.88914,7.62415 -20.83452,11.43563 v 2.89377 l 20.83452,11.43564 z M 82.644945,171.572 62.138037,182.82833 v 8.45675 l 16.036375,8.80258 4.470533,-2.45374 z m 50.610105,0 v 26.06192 l 4.47052,2.45374 16.03829,-8.80258 v -8.4676 z m -21.83835,14.98492 v 4.72816 l 20.83452,11.43563 v -4.72816 z m -6.93341,0 -20.834521,11.43387 v 4.72816 l 20.834521,-11.43563 z m -21.838345,11.98433 -3.641952,1.99924 3.641952,1.99915 z m 50.610105,0 v 3.99839 l 3.64385,-1.99915 z"
           id="path1094"
           inkscape:connector-curvature="0" />
        <g
           style="fill:#6699cc;fill-opacity:1"
           id="g1146"
           transform="matrix(3.6859816,0,0,3.5042403,-271.87532,-928.39353)">
          <path
             sodipodi:type="star"
             style="fill:#6699cc;fill-opacity:1;stroke:none;stroke-width:0.00262141;stroke-miterlimit:4;stroke-dasharray:none;stroke-opacity:1"
             id="path1142"
             sodipodi:sides="6"
             sodipodi:cx="-102.10558"
             sodipodi:cy="301.48264"
             sodipodi:r1="0.25007871"
             sodipodi:r2="0.21657445"
             sodipodi:arg1="0.52359878"
             sodipodi:arg2="1.0471976"
             inkscape:flatsided="true"
             inkscape:rounded="0"
             inkscape:randomized="0"
             d="m -101.88901,301.60767 -0.21657,0.12504 -0.21658,-0.12504 0,-0.25007 0.21658,-0.12504 0.21657,0.12504 z"
             transform="scale(-1,1)" />
          <path
             transform="scale(-1,1)"
             d="m -103.77139,301.60475 -0.21658,0.12503 -0.21657,-0.12503 0,-0.25008 0.21657,-0.12504 0.21658,0.12504 z"
             inkscape:randomized="0"
             inkscape:rounded="0"
             inkscape:flatsided="true"
             sodipodi:arg2="1.0471976"
             sodipodi:arg1="0.52359878"
             sodipodi:r2="0.21657445"
             sodipodi:r1="0.25007871"
             sodipodi:cy="301.47971"
             sodipodi:cx="-103.98797"
             sodipodi:sides="6"
             id="path1144"
             style="fill:#6699cc;fill-opacity:1;stroke:none;stroke-width:0.00262141;stroke-miterlimit:4;stroke-dasharray:none;stroke-opacity:1"
             sodipodi:type="star" />
        </g>
      </g>
    </g>
    <g
       id="g1751"
       transform="translate(-1.5258789e-5,-1.335144e-5)">
      <rect
         inkscape:export-ydpi="96"
         inkscape:export-xdpi="96"
         y="17.599989"
         x="-241.29999"
         height="279.39999"
         width="215.89999"
         id="rect883"
         style="opacity:1;fill:#ffffff;fill-opacity:1;stroke:none;stroke-width:0.317;stroke-linecap:round;stroke-linejoin:miter;stroke-miterlimit:4;stroke-dasharray:none;stroke-dashoffset:0;stroke-opacity:1" />
      <g
         id="g1711">
        <g
           id="g1313"
           transform="translate(183.96242,1.6038213)">
          <g
             transform="translate(-0.22527799,-4.0261946e-4)"
             id="g1279">
            <path
               inkscape:connector-curvature="0"
               id="path1207"
               d="m -266.27333,157.01635 -10.9795,6.02774 -87.24732,-47.88715 10.98058,-6.02684 z"
               style="opacity:1;vector-effect:none;fill:#5599ff;fill-opacity:1;stroke:none;stroke-width:0.05291667;stroke-linecap:butt;stroke-linejoin:miter;stroke-miterlimit:4;stroke-dasharray:none;stroke-dashoffset:0;stroke-opacity:1" />
            <path
               inkscape:connector-curvature="0"
               id="path1213"
               d="m -329.65644,134.28123 -39.83574,21.86397 -9.43339,-5.17679 v -27.89279 l 14.42732,-7.91863 z"
               style="opacity:1;vector-effect:none;fill:#5ed38d;fill-opacity:0.99607843;stroke:none;stroke-width:0.05291667;stroke-linecap:butt;stroke-linejoin:miter;stroke-miterlimit:4;stroke-dasharray:none;stroke-dashoffset:0;stroke-opacity:1" />
            <path
               style="opacity:1;vector-effect:none;fill:#ffdd55;fill-opacity:1;stroke:none;stroke-width:0.05291667;stroke-linecap:butt;stroke-linejoin:miter;stroke-miterlimit:4;stroke-dasharray:none;stroke-dashoffset:0;stroke-opacity:1"
               d="m -329.40244,147.93924 12.20267,6.68111 -45.70053,25.23458 v -13.5296 z"
               id="path1217"
               inkscape:connector-curvature="0" />
            <path
               style="opacity:1;vector-effect:none;fill:#4d4d4d;fill-opacity:1;stroke:none;stroke-width:0.05291667;stroke-linecap:butt;stroke-linejoin:miter;stroke-miterlimit:4;stroke-dasharray:none;stroke-dashoffset:0;stroke-opacity:1"
               d="m -362.9003,181.10933 20.50691,-11.25633 v 30.9826 l -20.50691,-11.26952 z"
               id="path1223"
               inkscape:connector-curvature="0" />
            <path
               style="opacity:1;vector-effect:none;fill:#ff5599;fill-opacity:1;stroke:none;stroke-width:0.05291667;stroke-linecap:butt;stroke-linejoin:miter;stroke-miterlimit:4;stroke-dasharray:none;stroke-dashoffset:0;stroke-opacity:1"
               d="m -317.78282,156.34415 v 25.42156 l -23.15671,-12.71074 z"
               id="path1229"
               inkscape:connector-curvature="0" />
            <path
               style="opacity:1;vector-effect:none;fill:#5599ff;fill-opacity:1;stroke:none;stroke-width:0.05291667;stroke-linecap:butt;stroke-linejoin:miter;stroke-miterlimit:4;stroke-dasharray:none;stroke-dashoffset:0;stroke-opacity:1"
               d="m -320.55505,189.56432 -20.83452,11.43563 v -31.40052 l 20.83452,11.43739 z"
               id="path1235"
               inkscape:connector-curvature="0" />
          </g>
          <g
             transform="matrix(-1,0,0,1,-634.39954,0)"
             id="g1293">
            <path
               style="opacity:1;vector-effect:none;fill:#5599ff;fill-opacity:1;stroke:none;stroke-width:0.05291667;stroke-linecap:butt;stroke-linejoin:miter;stroke-miterlimit:4;stroke-dasharray:none;stroke-dashoffset:0;stroke-opacity:1"
               d="m -266.27333,157.01635 -10.9795,6.02774 -87.24732,-47.88715 10.98058,-6.02684 z"
               id="path1281"
               inkscape:connector-curvature="0" />
            <path
               style="opacity:1;vector-effect:none;fill:#5ed38d;fill-opacity:0.99607843;stroke:none;stroke-width:0.05291667;stroke-linecap:butt;stroke-linejoin:miter;stroke-miterlimit:4;stroke-dasharray:none;stroke-dashoffset:0;stroke-opacity:1"
               d="m -329.65644,134.28123 -39.83574,21.86397 -9.43339,-5.17679 v -27.89279 l 14.42732,-7.91863 z"
               id="path1283"
               inkscape:connector-curvature="0" />
            <path
               inkscape:connector-curvature="0"
               id="path1285"
               d="m -329.40244,147.93924 12.20267,6.68111 -45.70053,25.23458 v -13.5296 z"
               style="opacity:1;vector-effect:none;fill:#ffdd55;fill-opacity:1;stroke:none;stroke-width:0.05291667;stroke-linecap:butt;stroke-linejoin:miter;stroke-miterlimit:4;stroke-dasharray:none;stroke-dashoffset:0;stroke-opacity:1" />
            <path
               inkscape:connector-curvature="0"
               id="path1287"
               d="m -362.9003,181.10933 20.50691,-11.25633 v 30.9826 l -20.50691,-11.26952 z"
               style="opacity:1;vector-effect:none;fill:#4d4d4d;fill-opacity:1;stroke:none;stroke-width:0.05291667;stroke-linecap:butt;stroke-linejoin:miter;stroke-miterlimit:4;stroke-dasharray:none;stroke-dashoffset:0;stroke-opacity:1" />
            <path
               inkscape:connector-curvature="0"
               id="path1289"
               d="m -317.78282,156.34415 v 25.42156 l -23.15671,-12.71074 z"
               style="opacity:1;vector-effect:none;fill:#ff5599;fill-opacity:1;stroke:none;stroke-width:0.05291667;stroke-linecap:butt;stroke-linejoin:miter;stroke-miterlimit:4;stroke-dasharray:none;stroke-dashoffset:0;stroke-opacity:1" />
            <path
               inkscape:connector-curvature="0"
               id="path1291"
               d="m -320.55505,189.56432 -20.83452,11.43563 v -31.40052 l 20.83452,11.43739 z"
               style="opacity:1;vector-effect:none;fill:#5599ff;fill-opacity:1;stroke:none;stroke-width:0.05291667;stroke-linecap:butt;stroke-linejoin:miter;stroke-miterlimit:4;stroke-dasharray:none;stroke-dashoffset:0;stroke-opacity:1" />
          </g>
        </g>
        <rect
           inkscape:export-ydpi="96"
           inkscape:export-xdpi="96"
           y="106.86802"
           x="-201.74409"
           height="99.26033"
           width="135.71913"
           id="rect949"
           style="opacity:0.5;fill:#ffffff;fill-opacity:1;stroke:none;stroke-width:0.14980565;stroke-linecap:round;stroke-linejoin:miter;stroke-miterlimit:4;stroke-dasharray:none;stroke-dashoffset:0;stroke-opacity:1" />
      </g>
    </g>
    <rect
       style="opacity:1;fill:#6699cc;fill-opacity:1;stroke:none;stroke-width:0.03902001;stroke-linecap:round;stroke-linejoin:miter;stroke-miterlimit:4;stroke-dasharray:none;stroke-dashoffset:0;stroke-opacity:1"
       id="rect977"
       width="215.89999"
       height="4.2333331"
       x="-241.29999"
       y="292.76663"
       inkscape:export-xdpi="96"
       inkscape:export-ydpi="96" />
    <g
       id="g919">
      <rect
         style="opacity:1;fill:#ffffff;fill-opacity:1;stroke:none;stroke-width:0.10873011;stroke-linecap:round;stroke-linejoin:miter;stroke-miterlimit:4;stroke-dasharray:none;stroke-dashoffset:0;stroke-opacity:1"
         id="rect1003"
         width="25.4"
         height="279.39999"
         x="-25.400009"
         y="17.599976"
         inkscape:export-xdpi="96"
         inkscape:export-ydpi="96" />
      <text
         transform="rotate(90)"
         xml:space="preserve"
         style="font-style:normal;font-weight:normal;font-size:9.87777795px;line-height:1.25;font-family:sans-serif;letter-spacing:0px;word-spacing:0px;fill:#101f24;fill-opacity:1;stroke:none;stroke-width:0.32686713;"
         x="24.771303"
         y="17.960661"
         id="text1007"
         inkscape:export-xdpi="96"
         inkscape:export-ydpi="96"><tspan
           sodipodi:role="line"
           x="24.771303"
           y="17.960661"
           style="font-style:normal;font-variant:normal;font-weight:bold;font-stretch:normal;font-size:9.87777795px;font-family:'Bitstream Vera Sans';-inkscape-font-specification:'Bitstream Vera Sans Bold';fill:#101f24;fill-opacity:1;stroke-width:0.32686713;"
           id="tspan1005">Piensa en Perl 6</tspan></text>
      <g
         id="g1051"
         transform="rotate(90,92.46918,181.31696)">
        <text
           id="text1043"
           y="284.75174"
           x="151.7784"
           style="font-style:normal;font-weight:normal;font-size:7.05555534px;line-height:1.25;font-family:sans-serif;letter-spacing:0px;word-spacing:0px;fill:#101f24;fill-opacity:1;stroke:none;stroke-width:0.13996068"
           xml:space="preserve"><tspan
             style="font-style:normal;font-variant:normal;font-weight:bold;font-stretch:normal;font-size:4.23333311px;line-height:0px;font-family:'Bitstream Vera Sans';-inkscape-font-specification:'Bitstream Vera Sans Bold';fill:#101f24;fill-opacity:1;stroke-width:0.13996068"
             y="284.75174"
             x="151.7784"
             sodipodi:role="line"
             id="tspan1039">Laurent Rosenfeld<tspan
   style="font-style:normal;font-variant:normal;font-weight:normal;font-stretch:normal;font-family:'Bitstream Vera Sans';-inkscape-font-specification:'Bitstream Vera Sans'"
   id="tspan1037">,</tspan> </tspan><tspan
             style="font-style:normal;font-variant:normal;font-weight:normal;font-stretch:normal;font-size:4.93888855px;line-height:0px;font-family:'Liberation Sans';-inkscape-font-specification:'Liberation Sans';fill:#101f24;fill-opacity:1;stroke-width:0.13996068"
             y="293.5712"
             x="151.7784"
             sodipodi:role="line"
             id="tspan1041" /></text>
        <text
           xml:space="preserve"
           style="font-style:normal;font-weight:normal;font-size:7.05555534px;line-height:1.25;font-family:sans-serif;letter-spacing:0px;word-spacing:0px;fill:#101f24;fill-opacity:1;stroke:none;stroke-width:0.13996068"
           x="151.97372"
           y="290.52325"
           id="text1049"><tspan
             id="tspan1047"
             sodipodi:role="line"
             x="151.97372"
             y="290.52325"
             style="font-style:normal;font-variant:normal;font-weight:normal;font-stretch:normal;font-size:4.23333311px;line-height:0px;font-family:'Bitstream Vera Sans';-inkscape-font-specification:'Bitstream Vera Sans';fill:#101f24;fill-opacity:1;stroke-width:0.13996068">con <tspan
   style="font-style:normal;font-variant:normal;font-weight:bold;font-stretch:normal;font-size:4.23333311px;font-family:'Bitstream Vera Sans';-inkscape-font-specification:'Bitstream Vera Sans Bold';stroke-width:0.13996068"
   id="tspan1045">Allen B. Downey</tspan></tspan></text>
      </g>
      <rect
         inkscape:export-ydpi="96"
         inkscape:export-xdpi="96"
         y="292.76663"
         x="-25.399994"
         height="4.2333331"
         width="25.399994"
         id="rect1001"
         style="opacity:1;fill:#6699cc;fill-opacity:1;stroke:none;stroke-width:0.01338375;stroke-linecap:round;stroke-linejoin:miter;stroke-miterlimit:4;stroke-dasharray:none;stroke-dashoffset:0;stroke-opacity:1" />
    </g>
    <text
       xml:space="preserve"
       style="font-style:normal;font-variant:normal;font-weight:normal;font-stretch:normal;font-size:6.3499999px;line-height:1.25;font-family:'Liberation Sans';-inkscape-font-specification:'Liberation Sans';letter-spacing:0px;word-spacing:0px;fill:#101f24;fill-opacity:1;stroke:none;stroke-width:0.3268671"
       x="239.03514"
       y="203.49962"
       id="text1015"><tspan
         sodipodi:role="line"
         x="239.03514"
         y="209.11787"
         style="font-style:normal;font-variant:normal;font-weight:normal;font-stretch:normal;font-size:6.3499999px;font-family:'Liberation Sans';-inkscape-font-specification:'Liberation Sans';fill:#101f24;fill-opacity:1;stroke-width:0.3268671"
         id="tspan1013" /></text>
  </g>
</svg>
